"Name","rank","x","y"
"Oldenborg",4,623060.803397093,6017971.55880982
"Kohoff",5,623603.20031522,6018289.05944482
"Goell",1,626745.13368242,6017144.73423951
"Klotzyn",1,630250.869860559,6016301.37317778
"Rollyn",1,629027.169496492,6017243.95318794
"fangmol",1,631524.179698845,6016152.54475513
"Quals",1,628415.319314458,6015755.66896138
"Gartz",5,629142.924936336,6014680.79701997
"Rosenhoff",3,632863.635502757,6012729.49103402
"Lütkendorp",1,626000.991569136,6016268.30019497
"Schwelbeck",2,624777.291205068,6016152.54475513
"Pütlüch",1,627108.936493359,6015276.11071059
"Sibbersdorp",1,621966.087665995,6017012.44230825
"Elersdorp",3,619429.389884265,6017178.46868198
"Hohenstein",4,617820.720000259,6016924.46817397
"Farbe",3,616995.218349256,6016712.80108397
"Wittenhusen",3,615598.21555525,6018935.30552898
"Siggen",3,633611.084914322,6016120.13323197
"Dame",1,635643.08897833,6008246.11748394
"Grube",4,632129.41528432,6010775.53920945
"Klenow",1,630965.246289311,6012775.79320996
"Ribsdorp",1,627769.073230299,6011442.29054295
"Ratem",1,628996.742352304,6011675.12434195
"Quale",1,627409.239177297,6012796.95991896
"Koselaw",3,626160.403346292,6013601.29486096
"Damlose",1,624509.400044286,6014193.96271296
"Johannsdorp",1,621376.727112273,6014807.79727397
"Petersdorp",5,621337.568700623,6011242.2651429
"Lensaenhoff",3,621178.818383122,6008654.63496764
"Lensaen",4,622401.195827877,6009496.01165039
"Rabelhorst",1,624226.824479135,6010226.2631109
"Rüting",1,627195.455416396,6009178.51101539
"Cismar",5,630259.336544159,6007400.50745938
"Gostorp",1,628560.708146902,6009765.88719014
"Güthow",1,631656.339338164,6008924.51050739
"Kellenhusen",1,632846.966719419,6006495.63064963
"Nienhagen",1,626773.113425879,6006333.57303385
"Lenst",1,630559.969957926,6004961.04424712
"Suckesdorp",1,627864.521858696,6004696.46038462
"Brenckenhagn",1,626376.237632128,6004613.77792759
"Klockenhagn",1,628244.861161041,6006796.59479322
"Groems",4,628807.101868856,6002943.59229555
"Körnicke",2,627484.182556351,6002381.35158774
"Petersdorp",1,620042.761423509,6010302.33097136
"Nienrade",1,622936.647419614,6007656.49234635
"Bendfelt",1,624226.493749307,6004365.7305565
"Beschendorp",1,621977.530918048,6006796.59479322
"Seebend",2,624172.055619597,6017349.78673294
"Dannow",1,621565.904573962,6017878.95445795
"Gyrenstrandt",1,635410.25517933,6011671.15558401
"Thomsdorp",1,630182.078056308,6010701.45572795
"Gramdorp",1,618634.854567291,6015306.83283906
"Meyschendorp",1,617695.581855411,6014235.26819593
"Güldenstein",5,618568.708601665,6012211.2016478
"Harmensdorp",1,619679.96082417,6013137.24516655
"Testorp",5,615830.265624779,6012396.41035155
"Hansuen",4,614361.825187898,6013031.41162155
"Kükelyn",1,613274.385513019,6013811.93401593
"Wangel",1,614954.493039901,6015809.54217781
"Warendorp",3,620464.534658942,6006500.93067865
"Halendorp",2,617785.623051119,6006054.44541068
"Wandero",1,618711.666569873,6007327.75524897
"Langnrehe",1,616280.802333144,6007096.24436928
"Langnhagn",1,617454.893222993,6010982.31984976
"Rethwische",1,615090.17495189,6010734.27247867
"Großen Relibbe",1,611700.194213595,6011494.95108336
"Lütke-Ralibbe",1,612493.945801098,6009361.74369194
"Mönck Neversdorp",3,612212.825447191,6007641.94858569
"Nüchell",4,608681.953802114,6006653.72785925
"Grönhaus",3,609161.512052897,6006223.77908268
"Klethkamp",3,606598.355884918,6012424.96336005
"Harmsdorp",1,608979.610647428,6009845.27070067
"Lütken Nüchell",1,607425.180455234,6005876.51276315
"Stendörp",3,611063.208564624,6003329.89308658
"Küßhersdorp",1,612468.810334161,6002420.38605923
"Schönenwoldt",4,614420.116320106,6004338.61906236
"Walckmoll",0,613675.974206822,6003925.2067772
"Möhlenkamp",2,615081.575976358,6002172.33868813
"Stolpe",1,615478.45177011,6001825.0723686
"Schirenbeck",1,615924.937038081,6004404.76502799
"Marcksdorp",1,619480.282690439,6005033.15170143
"Großen Schlämyn",1,621547.344116228,6004239.40011392
"Lütken Schlämyn",1,620240.961295129,6002403.84956782
"Hübsteyn",1,617528.976704493,6002866.8713272
"Sübsteyn",1,619033.797422468,6000601.37200454
"Krumbeck",1,622457.512603232,6002016.23420926
"Blysdorp",1,624789.157891523,6000279.9026116
"möhl",0,620440.060651662,6001751.65034676
"Haßelbierg",3,618075.342380558,5999287.71312722
"Schachthagn",1,622788.242431359,5999469.61453269
"Brodow",3,623615.067001674,5997931.7208319
"Loheberg",1,620936.155393851,5998312.06013425
"Beuscheloh",1,621928.34487823,5997749.81942643
"Merckendorp",1,621746.443472761,5996807.23941627
"Rüttyn",1,622556.73155167,5995980.41484596
"Altenkrempe",4,619282.50625322,5998080.54925456
"Newstadt",6,618439.145191497,5995947.34186314
"Sierhagen",3,617265.054301649,5997782.89240924
"Gaßow",1,616438.229731333,5999684.58892097
"Plümkow",1,615049.164453202,5998362.56742303
"Goemibs",1,614701.898133669,5996775.06424802
"Bockholtz",1,607277.013492233,5997552.27934412
"Reddingsdorp",1,611130.015989905,5996196.2870488
"Övelgunne",3,613560.880226633,5994360.7365027
"Siricksdorp",1,614867.263047733,5992756.69683629
"Ponsdorp",1,614933.409013358,5994823.75826208
"Farkoov",1,617265.054301649,5996956.96565349
"haßhoep",1,611824.54862897,5997403.45092147
"Gryzwel",1,611507.047993969,5999414.28827647
"haßelbrug",0,612631.529409598,5999652.41375272
"Niltendorp",1,610280.543040959,6013459.0346993
"Kraeckstede",1,632808.404942901,6017449.83399539
"Gortz",1,630757.880008542,6018227.04909149
"Heringsdorp",1,632097.335812432,6018706.60734228
"Micholsdorp",1,634065.178289762,6018342.80453134
"Burow",5,629732.617541354,6019748.40630087
"Saetwitz",3,631419.33966478,6019665.72384384
"Nienkercken",4,630394.0771976,6020757.13227666
"Segalendorp",1,628112.041383556,6019202.70208447
"Giddendorp",1,626623.757157002,6020244.50104306
"Großen Westseecke",1,619711.503749241,6019434.21296416
"Kl. Westseecke",1,620571.401302359,6018574.31541103
"Sorynkuell",1,625185.082404669,6012488.8865735
"Krempsdorp",1,627233.622960048,6017943.28289896
"Marckewitz",1,625376.244245312,6018737.03448646
"Langhoff",1,623772.866038574,6019499.03601047
"Prunow",0,622169.487831835,6019626.03626447
"Olde Galendorp",1,623280.740054327,6020991.28899497
"Puthlose",3,620645.484783849,6020832.53867747
"Großen",1,622598.113689083,6020435.66288372
"Donsdorp",1,612168.217829415,6018578.28416897
"Denitzmoll",0,614930.473353893,6019054.53512147
"Wanderade",0,616994.227481381,6018594.15920071
"Waselibueck",1,613628.720750403,6016212.90443821
"Sarensdorp",1,612438.093369163,6014847.6517077
"Kokeell",1,610453.714400427,6016149.40431121
"Siggenerbusch",1,635387.656629179,6013896.472722
"Süßoou",1,633667.861522939,6014524.85939544
"Siggenebeth",1,633882.835911224,6011697.11936496
"Zarnikow",1,609895.012060867,5999094.88945217
"Süßell",4,612689.017648848,5993369.29466764
"Middeborg",1,610678.180293863,5994258.29644564
"Keerzwerdr",1,612255.100114356,5995549.46569465
"Albersdorp",1,627336.545646923,6000862.45160069
"Gnenyn",1,619058.814384702,6008774.24243258
"Gadersdorp",1,633379.26752161,6019239.32300183
"Olendorp",1,632887.14153736,6020731.57598633
"Loersdorp",3,631585.388933869,6021509.45254209
"Süttel",1,633506.267775606,6022223.82897084
"Harckendorp",1,632410.890584863,6023652.58182835
"Grotenbrodt",4,634998.520760093,6026986.33849586
"Lütkenbrodt",1,632839.516442107,6025541.7106066
"Dimensdorp",1,630728.137219369,6023620.83176485
"Bauckendorp",5,628442.132647386,6022827.08017734
"Klinckstein",1,630299.511362121,6022223.82897084
"Wolckenbruch",1,627680.13112339,6021318.95216109
"Maschendorp",1,629220.00920313,6020556.95063708
"Grimmersdorp",1,626441.878646901,6021636.45279609
"Techelwitz",1,623441.497646168,6022319.07916134
"farowitz",1,625791.002345153,6023049.33062185
"Kremps",1,625410.001583152,6024001.83252685
"Dasenrade",1,626695.879154892,6024954.33443186
"Nandorp",1,624473.374709905,6021398.32731984
"Wandelwitz",1,621774.61931242,6022922.33036785
"Bardyn",1,622473.120709415,6024303.4581301
"Hilligenhaven",4,628823.133409366,6026383.08728936
"Sucksdorp",1,629886.760536604,6024811.4591461
"Ratzigsdorp",1,628521.507806115,6024557.4586381
"Clausdorp",1,631744.139251343,6024716.2089556
"Lupendorp",1,632950.641664335,6024414.58335235
"Rathlaw",1,608557.253354818,6013049.5656442
"Bleckendorp",4,607350.750941826,6015441.40376121
"Voderkamp",3,607551.834677327,6017124.15712672
"Sechendorp",1,609086.421079815,6018076.65903172
"Stoeff",1,615869.735715861,6015078.90446679
