Grave,Female,Male,iron knife,curved iron knives
G2,1,0,0,1
G7,0,1,1,1
G11,0,0,0,1
G12,0,1,1,0
G18,0,1,0,1
G20,0,0,0,1
G26,0,1,0,1
G27,1,0,0,1
G29,1,0,0,1
G31,0,1,0,1
G32,0,1,0,1
G40,1,0,0,1
G55,0,1,1,0
G56,0,1,0,1
G62,0,1,0,1
G63,0,1,0,1
