"loc04_id";"loc04_loc03_id";"loc04_nam";"loc04_code";"x";"y"
0;0;"unbekannt";"0";0;0
1;1;"ANDORRA";"AD";2891017.20399;4740273.12237
2;2;"SHQIPERI";"AL";4429852.6872;4615508.9296
3;3;"MITTELBURGENLAND";"AT111";4063554.08099;5290952.75718
4;3;"NORDBURGENLAND";"AT112";4080187.37234;5330946.40952
5;3;"SÜDBURGENLAND";"AT113";4049860.51055;5251862.19856
6;4;"MOSTVIERTEL-EISENWURZEN";"AT121";3947114.35309;5341405.21641
7;4;"NIEDERÖSTERREICH-SÜD";"AT122";4016992.69604;5318654.7281
8;4;"SANKT PÖLTEN";"AT123";3994406.12733;5357554.40834
9;4;"WALDVIERTEL";"AT124";3965314.786;5408726.30302
10;4;"WEINVIERTEL";"AT125";4041752.54048;5414175.14268
11;4;"WIENER UMLAND/NORDTEIL";"AT126";4045951.6343;5382216.2936
12;4;"WIENER UMLAND/SÜDTEIL";"AT127";4055468.71926;5350100.57839
13;5;"WIEN";"AT13";4048124.89461;5367537.77885
14;6;"KLAGENFURT-VILLACH";"AT211";3883136.89726;5175941.80215
15;6;"OBERKÄRNTEN";"AT212";3831252.92074;5197608.84284
16;6;"UNTERKÄRNTEN";"AT213";3925419.44029;5199125.42953
17;7;"GRAZ";"AT221";3984567.33335;5240832.53208
18;7;"LIEZEN";"AT222";3892077.6773;5277804.24966
19;7;"ÖSTLICHE OBERSTEIERMARK";"AT223";3968254.13431;5284072.51474
20;7;"OSTSTEIERMARK";"AT224";4017701.38623;5246508.71592
21;7;"WEST- UND SÜDSTEIERMARK";"AT225";3977033.12798;5212151.99244
22;7;"WESTLICHE OBERSTEIERMARK";"AT226";3911699.59303;5242255.22283
23;8;"INNVIERTEL";"AT311";3827651.49791;5354353.42052
24;8;"LINZ-WELS";"AT312";3882167.64062;5357750.66419
25;8;"MÜHLVIERTEL";"AT313";3900737.89018;5382786.60072
26;8;"STEYR-KIRCHDORF";"AT314";3898664.73837;5316407.32212
27;8;"TRAUNVIERTEL";"AT315";3848710.45792;5311727.19238
28;9;"LUNGAU";"AT321";3853979.02876;5233046.36419
29;9;"PINZGAU-PONGAU";"AT322";3794872.10368;5247697.71234
30;9;"SALZBURG UND UMGEBUNG";"AT323";3815812.88198;5298968.80579
31;10;"AUSSERFERN";"AT331";3619665.2529;5250249.12098
32;10;"INNSBRUCK";"AT332";3677631.34806;5231656.86874
33;10;"OSTTIROL";"AT333";3768338.00188;5202346.81388
34;10;"TIROLER OBERLAND";"AT334";3629011.98588;5215055.48263
35;10;"TIROLER UNTERLAND";"AT335";3728437.13265;5254564.98607
36;11;"BLUDENZ-BREGENZER WALD";"AT341";3572924.25623;5227776.27609
37;11;"RHEINTAL-BODENSEEGEBIET";"AT342";3555091.04086;5248755.20173
38;12;"REG. BRUXELLES-CAP.";"BE1";3174503.16986;5643749.13651
39;13;"ANTWERPEN (ARR)";"BE211";3187285.11831;5692519.14224
40;13;"MECHELEN";"BE212";3186981.97942;5669762.87473
41;13;"TURNHOUT";"BE213";3217475.52466;5687294.92374
42;14;"HASSELT";"BE221";3238972.6649;5653390.54379
43;14;"MAASEIK";"BE222";3256068.76339;5673363.73582
44;14;"TONGEREN";"BE223";3254607.11497;5639465.35489
45;15;"AALST";"BE231";3145099.99998;5649940.67547
46;15;"DENDERMONDE";"BE232";3152302.47136;5667805.84349
47;15;"EEKLO";"BE233";3123106.59047;5690097.99788
48;15;"GENT (ARR)";"BE234";3126750.693;5672017.33353
49;15;"OUDENAARDE";"BE235";3122920.7109;5646659.14933
50;15;"SINT-NIKLAAS";"BE236";3161265.9485;5684743.78363
51;16;"HALLE-VILVOORDE";"BE241";3167588.63901;5645887.56075
52;16;"LEUVEN";"BE242";3208200.37993;5647816.3408
53;17;"BRUGGE";"BE251";3097147.42006;5690001.08992
54;17;"DIKSMUIDE";"BE252";3071678.14705;5671755.55787
55;17;"IEPER";"BE253";3068113.8409;5652838.85358
56;17;"KORTRIJK";"BE254";3100395.88406;5646978.72194
57;17;"OOSTENDE";"BE255";3078243.53674;5688689.98911
58;17;"ROESELARE";"BE256";3087693.76729;5661616.18248
59;17;"TIELT";"BE257";3101836.59953;5666996.61119
60;17;"VEURNE";"BE258";3057796.80765;5676132.3824
61;18;"BRABANT WALLON";"BE31";3188136.0557;5624243.78734
62;19;"ATH";"BE321";3126410.00136;5623214.29907
63;19;"CHARLEROI";"BE322";3174873.92271;5601377.46711
64;19;"MONS";"BE323";3136302.82411;5602395.52491
65;19;"MOUSCRON";"BE324";3081683.84996;5640092.90177
66;19;"SOIGNIES";"BE325";3149651.56829;5618603.81319
67;19;"THUIN";"BE326";3161888.09113;5574843.97526
68;19;"TOURNAI";"BE327";3107755.35693;5623366.41892
69;20;"HUY";"BE331";3240429.43739;5601950.52549
70;20;"LIEGE (ARR)";"BE332";3259983.02106;5614297.34139
71;20;"VERVIERS";"BE333";3288610.63383;5596166.57957
72;20;"WAREMME";"BE334";3231956.55528;5621221.27373
73;21;"ARLON";"BE341";3267966.04978;5509816.19091
74;21;"BASTOGNE";"BE342";3267380.23501;5554864.04695
75;21;"MARCHE-EN-FAMENNE";"BE343";3250408.04102;5572055.57371
76;21;"NEUFCHATEAU";"BE344";3234089.76111;5536872.31138
77;21;"VIRTON";"BE345";3246804.98109;5508907.125
78;22;"DINANT";"BE351";3216294.44675;5566212.08875
79;22;"NAMUR (ARR)";"BE352";3205741.9644;5599966.3343
80;22;"PHILIPPEVILLE";"BE353";3182505.40791;5566331.14346
81;23;"BURGAS";"BG010";4973635.27134;4864456.49461
82;24;"HASKOVO";"BG011";4883361.66798;4789644.98174
83;25;"LOVEC";"BG012";4802676.11036;4911699.58041
84;26;"MIHAJLOVGRAD";"BG013";4654447.09694;4923980.78561
85;27;"PLOVDIV";"BG014";4790437.93928;4780223.93146
86;28;"RAZGARD";"BG015";4913273.01374;4984034.72964
87;29;"SOFIJA-LAND";"BG016";4684841.2336;4785527.94354
88;30;"SOFIJA-STADT";"BG017";4679957.7334;4829032.19864
89;31;"VARNA";"BG018";5005191.32965;4977701.76233
90;32;"BOSNA I HERCEGOVINA";"BH";4202196.33028;4931002.00412
91;33;"BREST";"BY001";4616210.06346;5932129.71722
92;34;"GOMEL";"BY002";4901432.78101;5997401.11303
93;35;"GRODNO";"BY003";4559921.05878;6072330.28924
94;36;"MINSK";"BY004";4720725.30348;6118326.37571
95;37;"MOGILEV";"BY005";4906537.13388;6154264.42916
96;38;"VITEBSK";"BY006";4759356.53451;6301555.52171
97;39;"APPENZELL A.RH.";"CH011";3527804.3555;5247605.82547
98;40;"APPENZELL I.RH.";"CH012";3531322.52954;5242200.80346
99;41;"GLARUS";"CH013";3504948.51646;5204620.79622
100;42;"SCHAFFHAUSEN";"CH014";3469750.05972;5286777.4148
101;43;"ST. GALLEN";"CH015";3522098.81052;5233600.91316
102;44;"THURGAU";"CH016";3504246.03126;5269340.11509
103;45;"ZÜRICH";"CH017";3474189.0681;5252467.78049
104;46;"AARGAU";"CH021";3436316.70535;5252691.6438
105;47;"BASEL-LAND";"CH022";3402154.23917;5257743.10231
106;48;"BASEL-STADT";"CH023";3395936.37158;5270493.55081
107;49;"BERN";"CH024";3395076.62753;5187997.87642
108;50;"SOLOTHURN";"CH025";3397137.63527;5241440.37239
109;51;"GRAUBÜNDEN";"CH031";3548065.81929;5168863.32728
110;52;"TICINO";"CH032";3485202.39089;5128738.4526
111;53;"VALAIS";"CH033";3392690.40697;5119951.96744
112;54;"FRIBOURG";"CH041";3353634.7139;5176838.84504
113;55;"GENÈVE";"CH042";3278569.71722;5123272.37991
114;56;"JURA";"CH043";3360860.16572;5247494.87468
115;57;"NEUCHÂTEL";"CH044";3330968.05799;5209256.06273
116;58;"VAUD";"CH045";3322119.34563;5164395.47786
117;59;"LUZERN";"CH051";3432657.76285;5214752.83076
118;60;"NIDWALDEN";"CH052";3454879.20849;5198692.46258
119;61;"OBWALDEN";"CH053";3442292.70275;5190629.66635
120;62;"SCHWYZ";"CH054";3481566.61217;5213543.12586
121;63;"URI";"CH055";3471795.69517;5181748.65804
122;64;"ZUG";"CH056";3464993.36904;5224495.99702
123;65;"FAMAGUSTA";"CY010";5788418.88805;4207493.78613
124;66;"KYRENIA";"CY020";5724978.65337;4189816.07126
125;67;"LARNAKA";"CY030";5762844.98891;4153875.98901
126;68;"LEVKOSIA";"CY040";5715448.17382;4160992.34903
127;69;"LIMASSOL";"CY050";5712982.73076;4122504.38505
128;70;"PAPHOS";"CY060";5668975.60707;4127135.6056
129;71;"JIHOCESKY KRAJ";"CZ010";3902194.07846;5458754.25972
130;72;"JIHOMORAVSKY KRAJ";"CZ011";4055288.19552;5477829.39312
131;73;"PRAHA";"CZ012";3891139.91927;5562527.09181
132;74;"SEVEROCESKY KRAJ";"CZ013";3866442.52152;5619594.45546
133;75;"SEVEROMORAVSKY KRAJ";"CZ014";4124597.09802;5551775.72412
134;76;"STREDOCESKY KRAJ";"CZ015";3897347.10292;5555147.34846
135;77;"VYCHODOCESKY KRAJ";"CZ016";3995112.96081;5577638.16016
136;78;"ZAPADOCESKY KRAJ";"CZ017";3793559.2565;5523535.56839
137;79;"STUTTGART";"DE111";3512873.99533;5404332.8471
138;79;"BÖBLINGEN";"DE112";3495943.73323;5393616.41566
139;79;"ESSLINGEN";"DE113";3527220.11057;5390237.65776
140;79;"GÖPPINGEN";"DE114";3552833.13156;5392066.97094
141;79;"LUDWIGSBURG";"DE115";3509170.39024;5422687.51033
142;79;"REMS-MURR-KREIS";"DE116";3536651.77091;5418207.37925
143;79;"HEILBRONN";"DE117";3513360.34562;5446194.19309
144;79;"HEILBRONN";"DE118";3513983.00351;5449031.59828
145;79;"HOHENLOHEKREIS";"DE119";3544743.49369;5459732.94684
146;79;"SCHWÄBISCH HALL";"DE11A";3566061.72275;5445694.98027
147;79;"MAIN-TAUBER-KREIS";"DE11B";3552318.97158;5491859.48903
148;79;"HEIDENHEIM";"DE11C";3586962.55799;5392410.70521
149;79;"OSTALBKREIS";"DE11D";3579678.66009;5416172.48059
150;80;"BADEN-BADEN";"DE121";3443741.54238;5401542.18492
151;80;"KARLSRUHE";"DE122";3457108.62671;5430767.71928
152;80;"KARLSRUHE";"DE123";3468183.58737;5438498.49778
153;80;"RASTATT";"DE124";3444470.73056;5403089.43484
154;80;"HEIDELBERG";"DE125";3478023.93048;5474316.34172
155;80;"MANNHEIM";"DE126";3464018.40433;5484993.70006
156;80;"NECKAR-ODENWALD-KREIS";"DE127";3520354.06985;5481192.11868
157;80;"RHEIN-NECKAR-KREIS";"DE128";3483183.26678;5470218.18882
158;80;"PFORZHEIM";"DE129";3479047.34369;5415651.49532
159;80;"CALW";"DE12A";3473340.08505;5393627.11257
160;80;"ENZKREIS";"DE12B";3480757.32105;5419694.67157
161;80;"FREUDENSTADT";"DE12C";3460750.98294;5370967.60039
162;81;"FREIBURG IM BREISGAU";"DE131";3412200.12588;5317878.4981
163;81;"BREISGAU-HOCHSCHWARZWALD";"DE132";3420040.2264;5310217.7841
164;81;"EMMENDINGEN";"DE133";3418468.16868;5335049.60698
165;81;"ORTENAUKREIS";"DE134";3427416.96133;5365136.18479
166;81;"ROTTWEIL";"DE135";3465514.05599;5346304.20444
167;81;"SCHWARZWALD-BAAR-KREIS";"DE136";3456404.47825;5320092.64304
168;81;"TUTTLINGEN";"DE137";3484894.93856;5319230.21521
169;81;"KONSTANZ";"DE138";3493466.0651;5295388.32975
170;81;"LÖRRACH";"DE139";3408419.42983;5286019.03198
171;81;"WALDSHUT";"DE13A";3441638.84316;5284503.55017
172;82;"REUTLINGEN";"DE141";3527207.74846;5363158.98533
173;82;"TÜBINGEN";"DE142";3499094.90262;5371380.07578
174;82;"ZOLLERNALBKREIS";"DE143";3495566.71861;5347543.08452
175;82;"ULM";"DE144";3570447.6985;5361751.94536
176;82;"ALB-DONAU-KREIS";"DE145";3561264.2024;5362744.82844
177;82;"BIBERACH";"DE146";3557703.21573;5330094.47908
178;82;"BODENSEEKREIS";"DE147";3530069.52372;5288218.80084
179;82;"RAVENSBURG";"DE148";3558538.73092;5298735.94137
180;82;"SIGMARINGEN";"DE149";3518123.97608;5322241.70727
181;83;"INGOLSTADT";"DE211";3676143.3527;5404739.35858
182;83;"MÜNCHEN";"DE212";3689656.02701;5338211.88099
183;83;"ROSENHEIM";"DE213";3732703.37653;5305362.893
184;83;"ALTÖTTING";"DE214";3775414.15762;5347753.71515
185;83;"BERCHTESGADENER LAND";"DE215";3792760.7089;5291861.26069
186;83;"BAD TÖLZ-WOLFRATSHAUSEN";"DE216";3686398.41416;5290510.47774
187;83;"DACHAU";"DE217";3674794.82928;5357835.7269
188;83;"EBERSBERG";"DE218";3717192.01726;5330587.30929
189;83;"EICHSTÄTT";"DE219";3673843.03902;5420529.70587
190;83;"ERDING";"DE21A";3722764.34309;5355692.88309
191;83;"FREISING";"DE21B";3702846.95833;5371294.25684
192;83;"FÜRSTENFELDBRUCK";"DE21C";3663766.1921;5341173.39636
193;83;"GARMISCH-PARTENKIRCHEN";"DE21D";3660353.49272;5270787.56805
194;83;"LANDSBERG A. LECH";"DE21E";3645549.06791;5322461.25073
195;83;"MIESBACH";"DE21F";3710853.23925;5292932.71034
196;83;"MÜHLDORF A. INN";"DE21G";3751261.25418;5350080.26328
197;83;"MÜNCHEN";"DE21H";3696130.6302;5329453.04525
198;83;"NEUBURG-SCHROBENHAUSEN";"DE21I";3662000.71232;5394186.43737
199;83;"PFAFFENHOFEN A. D. ILM";"DE21J";3686170.47825;5387285.76417
200;83;"ROSENHEIM";"DE21K";3736481.10066;5309247.38925
201;83;"STARNBERG";"DE21L";3670462.05424;5321158.3068
202;83;"TRAUNSTEIN";"DE21M";3767516.1477;5312327.70414
203;83;"WEILHEIM-SCHONGAU";"DE21N";3653483.86038;5296330.56289
204;84;"LANDSHUT";"DE221";3733240.0479;5383182.85542
205;84;"PASSAU";"DE222";3825774.42981;5391902.01251
206;84;"STRAUBING";"DE223";3762025.64441;5422011.33553
207;84;"DEGGENDORF";"DE224";3794081.1341;5412260.43774
208;84;"FREYUNG-GRAFENAU";"DE225";3831442.70871;5419609.83369
209;84;"KELHEIM";"DE226";3709626.31044;5413292.41904
210;84;"LANDSHUT";"DE227";3735870.24781;5384772.78905
211;84;"PASSAU";"DE228";3822413.341;5389226.80466
212;84;"REGEN";"DE229";3799818.29932;5439807.95169
213;84;"ROTTAL-INN";"DE22A";3786270.41415;5372551.65255
214;84;"STRAUBING-BOGEN";"DE22B";3762647.95281;5424158.80723
215;84;"DINGOLFING-LANDAU";"DE22C";3766019.23836;5395373.02747
216;85;"AMBERG";"DE231";3706231.33547;5483445.21693
217;85;"REGENSBURG";"DE232";3727556.02897;5434970.36332
218;85;"WEIDEN I.D. OPF";"DE233";3727746.94526;5508265.09651
219;85;"AMBERG-SULZBACH";"DE234";3702820.28696;5486985.6122
220;85;"CHAM";"DE235";3769029.95259;5462017.19359
221;85;"NEUMARKT I.D. OPF";"DE236";3686933.31446;5456379.30773
222;85;"NEUSTADT A. D. WALDNAAB";"DE237";3723557.55619;5510257.96055
223;85;"REGENSBURG";"DE238";3728242.90649;5436033.02805
224;85;"SCHWANDORF";"DE239";3736355.87933;5475124.59215
225;85;"TIRSCHENREUTH";"DE23A";3729900.51639;5534158.89758
226;86;"BAMBERG";"DE241";3636440.79642;5529306.66005
227;86;"BAYREUTH";"DE242";3685510.48084;5536908.41851
228;86;"COBURG";"DE243";3640486.08685;5571297.54949
229;86;"HOF";"DE244";3706482.51081;5578877.68852
230;86;"BAMBERG";"DE245";3635162.56615;5529964.10533
231;86;"BAYREUTH";"DE246";3683461.46533;5530714.02908
232;86;"COBURG";"DE247";3638649.18169;5571723.28487
233;86;"FORCHHEIM";"DE248";3656621.74692;5511550.07193
234;86;"HOF";"DE249";3701229.54616;5574360.50592
235;86;"KRONACH";"DE24A";3669123.12715;5579404.27678
236;86;"KULMBACH";"DE24B";3677759.58878;5554800.57313
237;86;"LICHTENFELS";"DE24C";3651616.36858;5554416.17972
238;86;"WUNSIEDEL I. FICHTELGEB.";"DE24D";3717821.00116;5554738.7425
239;87;"ANSBACH";"DE251";3614014.57321;5462525.18331
240;87;"ERLANGEN";"DE252";3643030.67659;5495666.27031
241;87;"FÜRTH";"DE253";3642253.09567;5485619.88618
242;87;"NÜRNBERG";"DE254";3651031.83566;5479846.43324
243;87;"SCHWABACH";"DE255";3647138.97492;5468417.9887
244;87;"ANSBACH";"DE256";3606733.18725;5457512.14879
245;87;"ERLANGEN-HÖCHSTADT";"DE257";3638426.88603;5502005.96733
246;87;"FÜRTH";"DE258";3634107.88552;5480407.00306
247;87;"NÜRNBERGER LAND";"DE259";3671545.29322;5486695.40139
248;87;"NEUSTADT(AISCH)-BAD WINDSHEIM";"DE25A";3605926.35413;5493390.7862
249;87;"ROTH";"DE25B";3654595.68469;5453922.28614
250;87;"WEISSENBURG-GUNZENHAUSEN";"DE25C";3638470.98982;5434328.01595
251;88;"ASCHAFFENBURG";"DE261";3510426.94346;5536112.63651
252;88;"SCHWEINFURT";"DE262";3587464.58956;5546330.70948
253;88;"WÜRZBURG";"DE263";3567771.26806;5516964.94282
254;88;"ASCHAFFENBURG";"DE264";3517222.10303;5541280.63901
255;88;"BAD KISSINGEN";"DE265";3568806.69134;5565659.69991
256;88;"RHÖN-GRABFELD";"DE266";3589227.66444;5582378.6069
257;88;"HASSBERGE";"DE267";3615086.01077;5548535.47903
258;88;"KITZINGEN";"DE268";3590401.07103;5513439.61024
259;88;"MILTENBERG";"DE269";3516890.31077;5513293.1375
260;88;"MAIN-SPESSART";"DE26A";3547550.68732;5539733.94154
261;88;"SCHWEINFURT";"DE26B";3590176.8784;5542970.65573
262;88;"WÜRZBURG";"DE26C";3566772.03043;5511500.06981
263;89;"AUGSBURG";"DE271";3639853.26049;5357908.72911
264;89;"KAUFBEUREN";"DE272";3620748.64942;5305711.62389
265;89;"KEMPTEN (ALLGÄU)";"DE273";3598055.87778;5289577.65276
266;89;"MEMMINGEN";"DE274";3586994.39593;5316292.21339
267;89;"AICHACH-FRIEDBERG";"DE275";3651955.31693;5367637.52913
268;89;"AUGSBURG";"DE276";3628417.16201;5358715.5625
269;89;"DILLINGEN A. D. DONAU";"DE277";3612686.94168;5385448.59668
270;89;"GÜNZBURG";"DE278";3602320.06128;5357938.38439
271;89;"NEU-ULM";"DE279";3584689.9457;5351597.30249
272;89;"LINDAU (BODENSEE)";"DE27A";3566516.11118;5274543.28487
273;89;"OSTALLGÄU";"DE27B";3622992.53482;5293621.96765
274;89;"UNTERALLGÄU";"DE27C";3603633.53626;5323145.79393
275;89;"DONAU-RIES";"DE27D";3625728.0453;5409060.99912
276;89;"OBERALLGÄU";"DE27E";3594766.95821;5271070.44046
277;90;"BERLIN-WEST";"DE301";3790472.18259;5826876.09354
278;90;"BERLIN-OST";"DE302";3807484.30648;5828626.60938
279;91;"BRANDENBURG";"DE401";3738653.37888;5813450.33091
280;91;"COTTBUS";"DE402";3870388.03222;5751673.93788
281;91;"FRANKFURT(ODER)";"DE403";3874135.18919;5812757.59263
282;91;"POTSDAM";"DE404";3775669.42296;5815167.26748
283;91;"BARNIM";"DE405";3817282.08194;5864724.69886
284;91;"DAHME-SPREEWALD";"DE406";3830507.40789;5778442.97476
285;91;"ELBE-ELSTER";"DE407";3808615.53709;5729217.22435
286;91;"HAVELLAND";"DE408";3745560.30171;5838344.89588
287;91;"MÄRKISCH-ODERLAND";"DE409";3848636.24254;5842380.28339
288;91;"OBERHAVEL";"DE40A";3782930.79523;5871973.64215
289;91;"OBERSPREEWALD-LAUSITZ";"DE40B";3842191.27454;5731599.18333
290;91;"ODER-SPREE";"DE40C";3856264.36816;5802557.11738
291;91;"OSTPRIGNITZ-RUPPIN";"DE40D";3744089.48409;5879472.16048
292;91;"POTSDAM-MITTELMARK";"DE40E";3752425.84948;5797688.23098
293;91;"PRIGNITZ";"DE40F";3698440.5891;5890300.58643
294;91;"SPREE-NEISSE";"DE40G";3874940.69083;5749775.60339
295;91;"TELTOW-FLÄMING";"DE40H";3793030.45045;5779693.50017
296;91;"UCKERMARK";"DE40I";3824537.24409;5908021.69787
297;92;"BREMEN";"DE501";3485443.0311;5887196.30049
298;92;"BREMERHAVEN";"DE502";3473363.17998;5935107.63654
299;93;"HAMBURG";"DE601";3567489.52675;5935576.34509
300;94;"DARMSTADT";"DE711";3475830.34222;5527605.43048
301;94;"FRANKFURT (MAIN)";"DE712";3474346.93823;5553474.25436
302;94;"OFFENBACH";"DE713";3484444.7725;5550548.56853
303;94;"WIESBADEN";"DE714";3446801.40846;5549344.36442
304;94;"BERGSTRASSE";"DE715";3475509.05177;5497923.42101
305;94;"DARMSTADT-DIEBURG";"DE716";3485115.59442;5524361.89699
306;94;"GROSS-GERAU";"DE717";3461782.68639;5530098.82889
307;94;"HOCHTAUNUSKREIS";"DE718";3464553.84587;5571764.55172
308;94;"MAIN-KINZIG-KREIS";"DE719";3520290.70781;5567521.15865
309;94;"MAIN-TAUNUS-KREIS";"DE71A";3459338.17955;5551877.83046
310;94;"ODENWALDKREIS";"DE71B";3498451.32656;5503960.23817
311;94;"OFFENBACH";"DE71C";3486422.20825;5542828.73522
312;94;"RHEINGAU-TAUNUS-KREIS";"DE71D";3434181.90363;5556431.28314
313;94;"WETTERAUKREIS";"DE71E";3493451.67844;5579946.91768
314;95;"GIESSEN";"DE721";3486315.05697;5603789.1117
315;95;"LAHN-DILL-KREIS";"DE722";3454920.6785;5612569.71037
316;95;"LIMBURG-WEILBURG";"DE723";3443025.08356;5588189.90772
317;95;"MARBURG-BIEDENKOPF";"DE724";3481589.58786;5633387.17428
318;95;"VOGELSBERGKREIS";"DE725";3519347.62516;5611447.51082
319;96;"KASSEL";"DE731";3531987.7139;5686384.64755
320;96;"FULDA";"DE732";3553914.67656;5603468.81316
321;96;"HERSFELD-ROTENBURG";"DE733";3553138.25635;5641601.64299
322;96;"KASSEL";"DE734";3528210.01577;5696291.36065
323;96;"SCHWALM-EDER-KREIS";"DE735";3526237.84653;5654474.36747
324;96;"WALDECK-FRANKENBERG";"DE736";3492245.23238;5672722.94329
325;96;"WERRA-MEISSNER-KREIS";"DE737";3565178.625;5673149.08461
326;97;"GREIFSWALD";"DE801";3788945.34721;6004199.79457
327;97;"NEUBRANDENBURG";"DE802";3781915.03135;5943054.65188
328;97;"ROSTOCK";"DE803";3705358.63667;6006140.26036
329;97;"SCHWERIN";"DE804";3660159.89984;5945883.40902
330;97;"STRALSUND";"DE805";3765937.09141;6025707.70147
331;97;"WISMAR";"DE806";3662086.97711;5976675.64537
332;97;"BAD DOBERAN";"DE807";3701541.78481;5995093.58583
333;97;"DEMMIN";"DE808";3766461.69737;5970475.77794
334;97;"GÜSTROW";"DE809";3718408.92437;5970395.5522
335;97;"LUDWIGSLUST";"DE80A";3648386.53971;5918421.18082
336;97;"MECKLENBURG-STRELITZ";"DE80B";3784665.81848;5931892.67236
337;97;"MÜRITZ";"DE80C";3742335.89142;5931603.38413
338;97;"NORDVORPOMMERN";"DE80D";3748455.97465;6015604.79645
339;97;"NORDWESTMECKLENBURG";"DE80E";3648120.62802;5967549.24871
340;97;"OSTVORPOMMERN";"DE80F";3806830.56221;5987887.55735
341;97;"PARCHIM";"DE80G";3690941.36897;5936953.29436
342;97;"RÜGEN";"DE80H";3784637.3906;6042769.21978
343;97;"UECKER-RANDOW";"DE80I";3836124.26986;5947688.83494
344;98;"BRAUNSCHWEIG";"DE911";3604237.3653;5794725.63776
345;98;"SALZGITTER";"DE912";3593991.54651;5777652.45707
346;98;"WOLFSBURG";"DE913";3621796.4297;5810144.79812
347;98;"GIFHORN";"DE914";3608924.29376;5828590.74234
348;98;"GÖTTINGEN";"DE915";3564426.06566;5707393.91218
349;98;"GOSLAR";"DE916";3596775.36331;5749738.27335
350;98;"HELMSTEDT";"DE917";3629091.69741;5793478.28161
351;98;"NORTHEIM";"DE918";3558674.7451;5734321.83553
352;98;"OSTERODE AM HARZ";"DE919";3595044.37528;5727947.81567
353;98;"PEINE";"DE91A";3585866.61519;5797491.68601
354;98;"WOLFENBÜTTEL";"DE91B";3608682.26126;5778084.62794
355;99;"HANNOVER";"DE921";3552784.281;5805344.14233
356;99;"DIEPHOLZ";"DE922";3480081.40585;5843697.02605
357;99;"HAMELN-PYRMONT";"DE923";3526937.12277;5773318.28403
358;99;"HANNOVER";"DE924";3548913.31069;5810552.44526
359;99;"HILDESHEIM";"DE925";3564853.54665;5773288.60717
360;99;"HOLZMINDEN";"DE926";3538065.96078;5749485.90586
361;99;"NIENBURG (WESER)";"DE927";3507881.7085;5830462.19352
362;99;"SCHAUMBURG";"DE928";3514347.17893;5795380.57675
363;100;"CELLE";"DE931";3574677.08098;5842827.74248
364;100;"CUXHAVEN";"DE932";3487344.01751;5942516.53688
365;100;"HARBURG";"DE933";3564048.47439;5909896.73657
366;100;"LÜCHOW-DANNENBERG";"DE934";3642506.38909;5878724.24621
367;100;"LÜNEBURG";"DE935";3604865.84282;5901385.66737
368;100;"OSTERHOLZ";"DE936";3487338.16549;5901836.51084
369;100;"ROTENBURG (WÜMME)";"DE937";3520391.54846;5901975.97614
370;100;"SOLTAU-FALLINGBOSTEL";"DE938";3551942.63838;5866569.28844
371;100;"STADE";"DE939";3527607.74123;5938439.4622
372;100;"UELZEN";"DE93A";3603970.88534;5873535.29065
373;100;"VERDEN";"DE93B";3511871.63687;5871028.33328
374;101;"DELMENHORST";"DE941";3476302.6644;5879414.60434
375;101;"EMDEN";"DE942";3379243.07474;5915706.40134
376;101;"OLDENBURG";"DE943";3448170.93314;5890253.18762
377;101;"OSNABRÜCK";"DE944";3435530.62725;5793753.50631
378;101;"WILHELMSHAVEN";"DE945";3439576.96345;5937377.6536
379;101;"AMMERLAND";"DE946";3434165.75112;5898596.12647
380;101;"AURICH";"DE947";3392128.48587;5930592.87087
381;101;"CLOPPENBURG";"DE948";3426473.7011;5864375.54562
382;101;"EMSLAND";"DE949";3392449.68708;5845747.90037
383;101;"FRIESLAND";"DE94A";3432592.35701;5931238.90025
384;101;"GRAFSCHAFT BENTHEIM";"DE94B";3365888.763;5817477.33043
385;101;"LEER";"DE94C";3398522.50138;5901861.76532
386;101;"OLDENBURG";"DE94D";3459191.15478;5872804.16279
387;101;"OSNABRÜCK";"DE94E";3435319.57597;5805395.82247
388;101;"VECHTA";"DE94F";3447782.90569;5836315.22349
389;101;"WESERMARSCH";"DE94G";3459360.27588;5913566.22724
390;101;"WITTMUND";"DE94H";3414329.39321;5938640.9027
391;102;"DÜSSELDORF";"DEA11";3347354.22762;5679962.84847
392;102;"DUISBURG";"DEA12";3342760.61556;5702848.97762
393;102;"ESSEN";"DEA13";3362292.44212;5701535.04314
394;102;"KREFELD";"DEA14";3331683.0717;5692524.78319
395;102;"MÖNCHENGLADBACH";"DEA15";3319260.23394;5673104.76015
396;102;"MÜLHEIM A. D. RUHR";"DEA16";3352764.44952;5699550.57049
397;102;"OBERHAUSEN";"DEA17";3350627.1288;5710580.30177
398;102;"REMSCHEID";"DEA18";3376060.53672;5673358.46479
399;102;"SOLINGEN";"DEA19";3364994.35497;5671211.61096
400;102;"WUPPERTAL";"DEA1A";3372240.46679;5680922.65408
401;102;"KLEVE";"DEA1B";3310734.26795;5727464.83835
402;102;"METTMANN";"DEA1C";3358471.35571;5681957.10119
403;102;"NEUSS";"DEA1D";3335690.26229;5669956.83423
404;102;"VIERSEN";"DEA1E";3313739.75865;5686272.63592
405;102;"WESEL";"DEA1F";3335347.60943;5723810.14401
406;103;"AACHEN";"DEA21";3296303.21497;5628800.43875
407;103;"BONN";"DEA22";3366521.61996;5620342.85259
408;103;"KÖLN";"DEA23";3357623.56679;5647308.83948
409;103;"LEVERKUSEN";"DEA24";3360830.36826;5659116.02553
410;103;"AACHEN";"DEA25";3305927.20092;5623747.72484
411;103;"DÜREN";"DEA26";3320073.82406;5634328.33393
412;103;"ERFTKREIS";"DEA27";3339507.14413;5643260.42377
413;103;"EUSKIRCHEN";"DEA28";3333055.46718;5602532.29231
414;103;"HEINSBERG";"DEA29";3301209.62569;5660656.18512
415;103;"OBERBERGISCHER KREIS";"DEA2A";3395872.50864;5653953.29195
416;103;"RHEINISCH-BERGISCHER KREIS";"DEA2B";3373378.26665;5655580.544
417;103;"RHEIN-SIEG-KREIS";"DEA2C";3375364.92937;5626278.55393
418;104;"BOTTROP";"DEA31";3355905.70158;5717222.07152
419;104;"GELSENKIRCHEN";"DEA32";3366229.53511;5714726.55304
420;104;"MÜNSTER";"DEA33";3405744.90087;5758639.52323
421;104;"BORKEN";"DEA34";3355952.96817;5760470.23883
422;104;"COESFELD";"DEA35";3387725.05649;5749073.87383
423;104;"RECKLINGHAUSEN";"DEA36";3372733.71571;5727709.93599
424;104;"STEINFURT";"DEA37";3403312.72467;5787061.30573
425;104;"WARENDORF";"DEA38";3428403.53419;5748715.0235
426;105;"BIELEFELD";"DEA41";3468725.52468;5764213.93201
427;105;"GÜTERSLOH";"DEA42";3455518.97806;5755280.1067
428;105;"HERFORD";"DEA43";3475918.37196;5781611.42498
429;105;"HÖXTER";"DEA44";3512423.6848;5727929.43466
430;105;"LIPPE";"DEA45";3496667.25844;5760939.60774
431;105;"MINDEN-LÜBBECKE";"DEA46";3482485.88983;5801930.71939
432;105;"PADERBORN";"DEA47";3480690.36823;5725479.52052
433;106;"BOCHUM";"DEA51";3376727.75343;5705163.85407
434;106;"DORTMUND";"DEA52";3394179.23117;5709836.43778
435;106;"HAGEN";"DEA53";3395460.35448;5691062.60968
436;106;"HAMM";"DEA54";3418840.31906;5726214.71014
437;106;"HERNE";"DEA55";3375675.51844;5712672.06359
438;106;"ENNEPE-RUHR-KREIS";"DEA56";3383302.71693;5691176.57829
439;106;"HOCHSAUERLANDKREIS";"DEA57";3457126.06458;5685619.28991
440;106;"MÄRKISCHER KREIS";"DEA58";3410239.34987;5681424.78493
441;106;"OLPE";"DEA59";3428239.20267;5661382.9094
442;106;"SIEGEN-WITTGENSTEIN";"DEA5A";3443228.30031;5644665.19222
443;106;"SOEST";"DEA5B";3445978.05214;5714526.2782
444;106;"UNNA";"DEA5C";3405573.92866;5716567.34493
445;107;"KOBLENZ";"DEB11";3398714.47369;5579945.29596
446;107;"AHRWEILER";"DEB12";3361508.28229;5594270.56431
447;107;"ALTENKIRCHEN (WESTERWALD)";"DEB13";3411420.67653;5624449.00096
448;107;"BAD KREUZNACH";"DEB14";3405505.64573;5521717.17413
449;107;"BIRKENFELD";"DEB15";3376325.56476;5509845.86966
450;107;"COCHEM-ZELL";"DEB16";3370128.45021;5556795.87209
451;107;"MAYEN-KOBLENZ";"DEB17";3381322.14949;5578601.93584
452;107;"NEUWIED";"DEB18";3391622.84764;5603416.39102
453;107;"RHEIN-HUNSRUECK-KREIS";"DEB19";3392905.64479;5546262.20418
454;107;"RHEIN-LAHN-KREIS";"DEB1A";3417302.6425;5570124.18487
455;107;"WESTERWALDKREIS";"DEB1B";3419465.21229;5602151.6485
456;108;"TRIER";"DEB21";3331402.31462;5516965.96951
457;108;"BERNKASTEL-WITTLICH";"DEB22";3354393.35241;5534135.51804
458;108;"BITBURG-PRÜM";"DEB23";3314811.68353;5550783.27708
459;108;"DAUN";"DEB24";3339659.62452;5569371.37761
460;108;"TRIER-SAARBURG";"DEB25";3333957.46221;5509387.59652
461;109;"FRANKENTHAL (PFALZ)";"DEB31";3453337.33394;5488886.38712
462;109;"KAISERSLAUTERN";"DEB32";3410125.3696;5478368.01458
463;109;"LANDAU I. D. PFALZ";"DEB33";3430875.68237;5454765.62736
464;109;"LUDWIGSHAFEN";"DEB34";3456304.96857;5483290.07249
465;109;"MAINZ";"DEB35";3445027.77851;5537451.74824
466;109;"NEUSTADT A. D. WEINSTR.";"DEB36";3438218.52002;5467884.08683
467;109;"PIRMASENS";"DEB37";3397594.40977;5452458.40505
468;109;"SPEYER";"DEB38";3458819.35501;5466127.23998
469;109;"WORMS";"DEB39";3451218.63502;5501669.96096
470;109;"ZWEIBRUECKEN";"DEB3A";3381278.81978;5458585.07538
471;109;"ALZEY-WORMS";"DEB3B";3439031.01628;5513945.29029
472;109;"BAD DÜRKHEIM";"DEB3C";3435300.36683;5480103.73201
473;109;"DONNERSBERGKREIS";"DEB3D";3421600.50538;5500204.65083
474;109;"GERMERSHEIM";"DEB3E";3444695.06755;5442639.08596
475;109;"KAISERSLAUTERN";"DEB3F";3404820.33373;5480006.4354
476;109;"KUSEL";"DEB3G";3389624.04495;5491339.76699
477;109;"SÜDL. WEINSTRASSE";"DEB3H";3430267.08233;5451031.45087
478;109;"LUDWIGSHAFEN";"DEB3I";3453361.75985;5475878.86228
479;109;"MAINZ-BINGEN";"DEB3J";3433816.73938;5532076.87029
480;109;"PIRMASENS";"DEB3K";3402163.79894;5453578.63534
481;110;"SAARBRUECKEN";"DEC01";3351877.57457;5459031.02505
482;110;"MERZIG-WADERN";"DEC02";3332373.53351;5487119.83173
483;110;"NEUNKIRCHEN";"DEC03";3363727.89723;5473010.84539
484;110;"SAARLOUIS";"DEC04";3339283.37519;5471104.03385
485;110;"SAARPFALZ-KREIS";"DEC05";3372369.58968;5458848.27146
486;110;"SANKT WENDEL";"DEC06";3362876.35786;5489095.46609
487;111;"CHEMNITZ";"DED01";3776517.70739;5640247.49019
488;111;"DRESDEN";"DED02";3835035.38312;5669528.32699
489;111;"GÖRLITZ";"DED03";3917379.55799;5682570.35792
490;111;"LEIPZIG";"DED04";3735200.24827;5694118.97399
491;111;"PLAUEN";"DED05";3723433.3327;5598982.88457
492;111;"ZWICKAU";"DED06";3746039.29368;5626442.57408
493;111;"AUERBACH";"DED07";3739657.37528;5600716.55459
494;111;"KLINGENTHAL";"DED08";3742622.40981;5587181.63465
495;111;"OELSNITZ";"DED09";3727553.46543;5584307.36616
496;111;"PLAUEN-LAND";"DED0A";3717594.34298;5601624.96266
497;111;"REICHENBACH";"DED0B";3735963.21509;5613549.98249
498;111;"ANNABERG";"DED0C";3782634.10442;5610678.98725
499;111;"BAUTZEN";"DED0D";3876871.86114;5685821.56819
500;111;"CHEMNITZER LAND";"DED0E";3756793.48796;5639445.61071
501;111;"DELITZSCH";"DED0F";3742697.23064;5714220.48101
502;111;"DÖBELN";"DED0G";3784847.5627;5675043.37373
503;111;"FREIBERG";"DED0H";3805694.56286;5643919.7087
504;111;"LEIPZIGER LAND";"DED0I";3739642.5768;5679753.38322
505;111;"MEISSEN";"DED0J";3809339.54553;5676187.72826
506;111;"MITTL. ERZGEBIRGSKREIS";"DED0K";3796473.55127;5624673.0157
507;111;"MITTWEIDA";"DED0L";3776636.76887;5657009.17217
508;111;"MULDENTALKREIS";"DED0M";3760878.02624;5689092.29101
509;111;"NIEDERSCHL. OBERLAUSITZKREIS";"DED0N";3901764.00454;5705702.41083
510;111;"RIESA-GROSSENHAIN";"DED0P";3813597.73661;5696002.65264
511;111;"LÖBAU-ZITTAU";"DED0Q";3901726.92207;5667408.04792
512;111;"SÄCHSISCHE SCHWEIZ";"DED0R";3855974.50724;5657412.30282
513;111;"STOLLBERG";"DED0S";3769789.49555;5626653.07324
514;111;"TORGAU-OSCHATZ";"DED0T";3778209.39818;5709613.18853
515;111;"WEISSERITZKREIS";"DED0U";3827814.84707;5649301.18285
516;111;"AUE-SCHWARZENBERG";"DED0V";3762416.85299;5604866.34257
517;111;"KAMENZ";"DED0W";3850991.36196;5693459.32018
518;111;"ZWICKAUER LAND";"DED0X";3745257.674;5624413.38692
519;111;"DRESDEN-LAND";"DED0Y";3836107.0019;5677177.48328
520;111;"HOYERSWERDA";"DED0Z";3868293.0601;5712699.42024
521;112;"DESSAU";"DEE11";3722825.31871;5747252.38077
522;112;"ANHALT-ZERBST";"DEE12";3721394.29309;5765326.13921
523;112;"BERNBURG";"DEE13";3689055.0339;5738988.33369
524;112;"BITTERFELD";"DEE14";3727577.96919;5728799.08736
525;112;"KÖTHEN";"DEE15";3707858.68677;5740000.13899
526;112;"WITTENBERG";"DEE16";3760625.09282;5746605.98963
527;113;"HALLE/SAALE";"DEE21";3706337.94763;5709078.73758
528;113;"BURGENLANDKREIS";"DEE22";3698147.55847;5670069.05843
529;113;"MANSFELDER LAND";"DEE23";3673761.80757;5718593.3764
530;113;"MERSEBURG-QUERFURT";"DEE24";3696328.97041;5693700.01542
531;113;"SAALKREIS";"DEE25";3703657.80894;5714632.3321
532;113;"SANGERHAUSEN";"DEE26";3652630.65491;5708292.43053
533;113;"WEISSENFELS";"DEE27";3712355.88685;5677403.31255
534;114;"MAGDEBURG";"DEE31";3681121.05845;5779370.75119
535;114;"ASCHERSLEBEN-STASSFURT";"DEE32";3668586.9582;5745632.98441
536;114;"BÖRDEKREIS";"DEE33";3656487.51287;5771936.39349
537;114;"HALBERSTADT";"DEE34";3633533.31253;5759678.42512
538;114;"JERICHOWER LAND";"DEE35";3706099.61759;5799491.16646
539;114;"OHREKREIS";"DEE36";3663011.25118;5800167.05216
540;114;"STENDAL";"DEE37";3691833.66381;5844109.51556
541;114;"QUEDLINBURG";"DEE38";3648293.13547;5734634.6808
542;114;"SCHÖNEBECK";"DEE39";3690396.47608;5760674.8544
543;114;"WERNIGERODE";"DEE3A";3624959.82269;5740491.36334
544;114;"ALTMARKKREIS SALZWEDEL";"DEE3B";3650555.84132;5840867.97209
545;115;"FLENSBURG";"DEF01";3528201.83332;6073473.65674
546;115;"KIEL";"DEF02";3573533.20194;6022093.12154
547;115;"LÜBECK";"DEF03";3612512.42703;5972000.60643
548;115;"NEUMÜNSTER";"DEF04";3564448.05486;5995068.62165
549;115;"DITHMARSCHEN";"DEF05";3507304.45666;6000363.08559
550;115;"HERZOGTUM LAUENBURG";"DEF06";3606136.94781;5940890.38215
551;115;"NORDFRIESLAND";"DEF07";3493199.59126;6054060.38729
552;115;"OSTHOLSTEIN";"DEF08";3618734.26988;6008198.34743
553;115;"PINNEBERG";"DEF09";3548912.82639;5954229.39253
554;115;"PLÖN";"DEF0A";3588807.78669;6013423.97969
555;115;"RENDSBURG-ECKERNFÖRDE";"DEF0B";3551010.28313;6018252.67003
556;115;"SCHLESWIG-FLENSBURG";"DEF0C";3532702.71153;6055216.28078
557;115;"SEGEBERG";"DEF0D";3574936.81018;5977132.87305
558;115;"STEINBURG";"DEF0E";3534124.28412;5977735.80322
559;115;"STORMARN";"DEF0F";3587774.17353;5955050.51158
560;116;"ERFURT";"DEG01";3642091.05979;5651528.01044
561;116;"GERA";"DEG02";3717076.88905;5644356.881
562;116;"JENA";"DEG03";3681917.87988;5646321.96536
563;116;"SUHL";"DEG04";3619345.12971;5609534.77549
564;116;"WEIMAR";"DEG05";3662911.70304;5651665.77465
565;116;"EICHSFELD";"DEG06";3587413.13885;5694979.56421
566;116;"NORDHAUSEN";"DEG07";3620410.4047;5708922.08119
567;116;"WARTBURGKREIS";"DEG08";3585891.72917;5640391.70914
568;116;"UNSTRUT-HAINICH-KREIS";"DEG09";3608560.27972;5673223.1209
569;116;"KYFFHÄUSERKREIS";"DEG0A";3638447.59396;5689625.82138
570;116;"SCHMALKALDEN-MEININGEN";"DEG0B";3599371.79627;5611337.47221
571;116;"GOTHA";"DEG0C";3619185.47338;5642790.7071
572;116;"SÖMMERDA";"DEG0D";3650997.59244;5671384.6786
573;116;"HILDBURGHAUSEN";"DEG0E";3623216.21637;5590025.1645
574;116;"ILM-KREIS";"DEG0F";3638816.09322;5624094.43804
575;116;"WEIMARER LAND";"DEG0G";3666840.02258;5651145.49627
576;116;"SONNEBERG";"DEG0H";3651553.56295;5588444.63647
577;116;"SAALFELD-RUDOLSTADT";"DEG0I";3663314.4797;5613754.05324
578;116;"SAALE-HOLZLAND KREIS";"DEG0J";3692219.0015;5644382.93997
579;116;"SAALE-ORLA-KREIS";"DEG0K";3692020.45277;5608318.72063
580;116;"GREIZ";"DEG0L";3717011.12784;5628059.09536
581;116;"ALTENBURGER LAND";"DEG0M";3738962.69354;5652374.28908
582;117;"KOBENHAVN OG FREDERIKSBERG";"DK001";3722602.30488;6178300.86257
583;117;"KOBENHAVNS AMT";"DK002";3713946.9371;6180298.61873
584;117;"FREDERIKSBORG AMT";"DK003";3685361.20439;6191239.09248
585;117;"ROSKILDE AMT";"DK004";3692868.81397;6162784.84116
586;117;"VESTSJAELLANDS AMT";"DK005";3657307.47201;6161037.25825
587;117;"STORSTROMS AMT";"DK006";3677274.56645;6097634.5916
588;117;"BORNHOLMS AMT";"DK007";3874985.84523;6116304.0035
589;117;"FYNS AMT";"DK008";3586706.531;6128104.66732
590;117;"SONDERJYLLANDS AMT";"DK009";3514782.36815;6109257.36317
591;117;"RIBE AMT";"DK00A";3481765.45196;6163371.27142
592;117;"VEJLE AMT";"DK00B";3533241.84212;6181565.6353
593;117;"RINGKOBING AMT";"DK00C";3478604.22672;6229450.03825
594;117;"AARHUS AMT";"DK00D";3598459.56691;6233431.71692
595;117;"VIBORG AMT";"DK00E";3504277.1711;6279432.43556
596;117;"NORDJYLLANDS AMT";"DK00F";3555390.74185;6330548.32537
597;118;"LA CORUNA";"ES111";2078333.15797;4927040.25562
598;118;"LUGO";"ES112";2159076.15582;4898113.70162
599;118;"ORENSE";"ES113";2129465.93607;4809226.54388
600;118;"PONTEVEDRA";"ES114";2063069.41432;4850152.445
601;119;"PRINCIPADO DE ASTURIAS";"ES12";2283826.64642;4906593.54333
602;120;"CANTABRIA";"ES13";2442352.45762;4868897.68469
603;121;"ALAVA";"ES211";2543099.16533;4811986.42459
604;121;"GUIPUZCOA";"ES212";2591051.56525;4839972.38935
605;121;"VIZCAYA";"ES213";2538875.89947;4858490.03421
606;122;"COMUNIDAD DE NAVARRA";"ES22";2629127.89644;4781157.7707
607;123;"LA RIOJA";"ES23";2550873.30658;4747167.32664
608;124;"HUESCA";"ES241";2751779.88823;4715009.70081
609;124;"TERUEL";"ES242";2669748.25159;4550502.82112
610;124;"ZARAGOZA";"ES243";2661682.36507;4659263.11005
611;125;"COMUNIDAD DE MADRID";"ES3";2421257.07717;4563838.97813
612;126;"AVILA";"ES411";2318441.01944;4588212.83841
613;126;"BURGOS";"ES412";2463793.46697;4770642.98175
614;126;"LEON";"ES413";2282830.34733;4829585.41706
615;126;"PALENCIA";"ES414";2385625.42748;4783511.55216
616;126;"SALAMANCA";"ES415";2228399.18302;4630394.07621
617;126;"SEGOVIA";"ES416";2404153.06527;4643344.2161
618;126;"SORIA";"ES417";2534438.18312;4675544.95889
619;126;"VALLADOLID";"ES418";2346312.40918;4705526.31625
620;126;"ZAMORA";"ES419";2253641.29551;4732192.32649
621;127;"ALBACETE";"ES421";2545225.18337;4358223.55905
622;127;"CIUDAD REAL";"ES422";2386261.24508;4390119.06439
623;127;"CUENCA";"ES423";2541735.66395;4479395.37995
624;127;"GUADALAJARA";"ES424";2518824.42533;4586398.31931
625;127;"TOLEDO";"ES425";2372805.88666;4491087.0353
626;128;"BADAJOZ";"ES431";2181150.82393;4397956.2169
627;128;"CACERES";"ES432";2198800.44709;4509647.26629
628;129;"BARCELONA";"ES511";2917440.49873;4646769.61776
629;129;"GIRONA";"ES512";2978023.3215;4686422.23707
630;129;"LLEIDA";"ES513";2842519.20258;4688192.37049
631;129;"TARRAGONA";"ES514";2813178.47578;4583466.96887
632;130;"ALICANTE";"ES521";2663784.89438;4306009.50059
633;130;"CASTELLON DE LA PLANA";"ES522";2721170.53721;4497162.99402
634;130;"VALENCIA";"ES523";2654352.23255;4406656.37959
635;131;"BALEARES";"ES53";2973636.58041;4401714.80612
636;132;"ALMERIA";"ES611";2490423.74074;4180795.73912
637;132;"CADIZ";"ES612";2174262.93235;4150645.73385
638;132;"CORDOBA";"ES613";2284112.02388;4298881.18169
639;132;"GRANADA";"ES614";2410342.35419;4204515.93237
640;132;"HUELVA";"ES615";2097565.8785;4282120.16652
641;132;"JAEN";"ES616";2405097.91096;4284548.7594
642;132;"MALAGA";"ES617";2271758.18775;4165920.24104
643;132;"SEVILLA";"ES618";2196716.04664;4248793.56383
644;133;"REGION DE MURCIA";"ES62";2577242.67599;4261525.55805
645;134;"LAS PALMAS";"ES701";1159513.53608;3391076.18767
646;134;"SANTA CRUZ DE TENERIFE";"ES702";904332.643113;3441754.23334
647;135;"EESTI";"EW";4451013.33482;6623246.69793
648;136;"UUSIMAA";"FI11";4368728.66812;6805176.16233
649;137;"VARSINAIS-SUOMI";"FI121";4240952.39359;6793465.49782
650;137;"SATAKUNTA";"FI122";4198695.04005;6892324.15098
651;137;"HÄME";"FI123";4326253.924;6853285.908
652;137;"PIRKANMAA";"FI124";4274262.84548;6932343.81895
653;137;"PÄIJÄT-HÄME";"FI125";4388325.96124;6910377.10874
654;137;"KYMENLAAKSO";"FI126";4464580.76702;6879153.47974
655;137;"ETELÄ-KARJALA";"FI127";4528081.3539;6942406.56679
656;138;"ETELÄ-SAVO";"FI131";4481993.32575;7010419.75103
657;138;"POHJOIS-SAVO";"FI132";4420725.97469;7141290.4187
658;138;"POHJOIS-KARJALA";"FI133";4550498.68723;7152927.62636
659;138;"KAINUU";"FI134";4429130.57033;7303173.13799
660;139;"KESKI-SUOMI";"FI141";4339504.33776;7044313.83324
661;139;"ETELÄ-POHJANMAA";"FI142";4214156.35902;7036389.65442
662;139;"VAASAN RANNKKOSEUTU";"FI143";4161220.40256;7064052.92095
663;139;"KESKI-POHJANMAA";"FI144";4241368.3879;7145494.32493
664;140;"POHJOIS-POHJANMAAA";"FI151";4324833.62813;7324818.6976
665;140;"LAPPI";"FI152";4226358.25294;7618342.7455
666;141;"AHVENANMAA/ALAND";"FI2";4113021.3431;6728259.14517
667;142;"FÜRSTENTUM LIECHTENSTEIN";"FL";3541826.43909;5222785.66689
668;143;"PARIS";"FR101";3010729.15941;5435343.5309
669;143;"SEINE-ET-MARNE";"FR102";3052698.58286;5405983.85348
670;143;"YVELINES";"FR103";2973286.64842;5434080.84621
671;143;"ESSONNE";"FR104";3000397.9733;5398824.78976
672;143;"HAUTS-DE-SEINE";"FR105";3003395.84274;5434629.98696
673;143;"SEINE-SAINT-DENIS";"FR106";3021664.30403;5441104.06023
674;143;"VAL-DE-MARNE";"FR107";3019468.97517;5425792.46417
675;143;"VAL-D´OISE";"FR108";2997571.91791;5461513.44508
676;144;"ARDENNES";"FR211";3184824.26428;5507114.7502
677;144;"AUBE";"FR212";3141154.67493;5363846.04333
678;144;"MARNE";"FR213";3151524.11172;5435228.04859
679;144;"HAUTE-MARNE";"FR214";3219447.39761;5337035.08882
680;145;"AISNE";"FR221";3106312.89694;5506536.35723
681;145;"OISE";"FR222";3022305.66649;5496427.93204
682;145;"SOMME";"FR223";3016840.0943;5558720.86125
683;146;"EURE";"FR231";2914898.55124;5473439.76175
684;146;"SEINE-MARITIME";"FR232";2923446.00576;5533384.90437
685;147;"CHER";"FR241";3005415.20906;5235198.97118
686;147;"EURE-ET-LOIR";"FR242";2934193.87981;5389709.92379
687;147;"INDRE";"FR243";2932696.32492;5209502.50246
688;147;"INDRE-ET-LOIRE";"FR244";2870794.72796;5269734.51542
689;147;"LOIR-ET-CHER";"FR245";2930361.42496;5303935.76138
690;147;"LOIRET";"FR246";3002290.68574;5330280.83456
691;148;"CALVADOS";"FR251";2815153.75269;5482935.74734
692;148;"MANCHE";"FR252";2744064.81829;5490000.82312
693;148;"ORNE";"FR253";2844943.13048;5425756.5609
694;149;"COTE-D´OR";"FR261";3181641.72938;5263067.30739
695;149;"NIEVRE";"FR262";3083246.42978;5234820.53476
696;149;"SAONE-ET-LOIRE";"FR263";3159125.83208;5177211.58426
697;149;"YONNE";"FR264";3093497.40138;5315000.26194
698;150;"NORD";"FR301";3088503.22537;5607634.94463
699;150;"PAS-DE-CALAIS";"FR302";3023161.58924;5618031.19881
700;151;"MEURTHE-ET-MOSELLE";"FR411";3291960.66324;5409570.97247
701;151;"MEUSE";"FR412";3235595.72576;5434768.76186
702;151;"MOSELLE";"FR413";3330260.28202;5435722.35023
703;151;"VOSGES";"FR414";3306049.70337;5343060.46889
704;152;"BAS-RHIN";"FR421";3393850.33042;5393462.00317
705;152;"HAUT-RHIN";"FR422";3371286.94746;5303384.54524
706;153;"DOUBS";"FR431";3300667.48867;5228617.99129
707;153;"JURA";"FR432";3248289.72534;5181913.6754
708;153;"HAUTE-SAONE";"FR433";3281936.1388;5282104.12597
709;153;"TERRITOIRE DE BELFORT";"FR434";3345062.40386;5278976.16699
710;154;"LOIRE-ATLANTIQUE";"FR511";2692523.7979;5302619.32091
711;154;"MAINE-ET-LOIRE";"FR512";2777341.60429;5295021.16257
712;154;"MAYENNE";"FR513";2780512.73964;5379767.77235
713;154;"SARTHE";"FR514";2843876.47443;5354971.85876
714;154;"VENDEE";"FR515";2711367.57225;5222659.84652
715;155;"COTES-D´ARMOR";"FR521";2620804.44647;5435115.85396
716;155;"FINISTERE";"FR522";2529049.3521;5429039.42184
717;155;"ILLE-ET-VILAINE";"FR523";2707477.39834;5390517.78326
718;155;"MORBIHAN";"FR524";2614729.03758;5368526.22325
719;156;"CHARENTE";"FR531";2814787.54456;5102851.36095
720;156;"CHARENTE-MARITIME";"FR532";2746962.60366;5117919.98813
721;156;"DEUX-SEVRES";"FR533";2785067.42718;5200005.25971
722;156;"VIENNE";"FR534";2845034.90857;5194398.02752
723;157;"DORDOGNE";"FR611";2849584.95988;5030189.1316
724;157;"GIRONDE";"FR612";2742134.63216;5010109.80533
725;157;"LANDES";"FR613";2715106.86242;4917741.47793
726;157;"LOT-ET-GARONNE";"FR614";2819303.97576;4950712.92641
727;157;"PYRENEES-ATLANTIQUES";"FR615";2707743.6949;4839109.87488
728;158;"ARIEGE";"FR621";2888389.10716;4782526.95856
729;158;"AVEYRON";"FR622";2995353.34706;4924655.44826
730;158;"HAUTE-GARONNE";"FR623";2865745.38145;4833541.89574
731;158;"GERS";"FR624";2811270.85884;4876352.19376
732;158;"LOT";"FR625";2912682.36388;4970338.77809
733;158;"HAUTES-PYRENEES";"FR626";2780491.96953;4807835.91839
734;158;"TARN";"FR627";2949934.95294;4873653.52011
735;158;"TARN-ET-GARONNE";"FR628";2882113.15411;4913280.84961
736;159;"CORREZE";"FR631";2941232.97039;5049651.8194
737;159;"CREUSE";"FR632";2959848.88551;5130178.60836
738;159;"HAUTE-VIENNE";"FR633";2896859.17012;5113870.79747
739;160;"AIN";"FR711";3217728.32637;5113392.08939
740;160;"ARDECHE";"FR712";3137383.40006;4967597.57708
741;160;"DROME";"FR713";3196132.55793;4956908.42043
742;160;"ISERE";"FR714";3231267.3233;5019792.8544
743;160;"LOIRE";"FR715";3123532.78237;5076985.48065
744;160;"RHONE";"FR716";3161759.7434;5090893.38823
745;160;"SAVOIE";"FR717";3300267.78753;5040923.13819
746;160;"HAUTE-SAVOIE";"FR718";3301095.70367;5102428.62231
747;161;"ALLIER";"FR721";3052767.78386;5156320.71226
748;161;"CANTAL";"FR722";3000637.10844;5009976.85479
749;161;"HAUTE-LOIRE";"FR723";3090978.43118;5012088.19951
750;161;"PUY-DE-DOME";"FR724";3043449.41686;5082435.39204
751;162;"AUDE";"FR811";2963940.79118;4796452.09176
752;162;"GARD";"FR812";3113627.96011;4884154.53222
753;162;"HERAULT";"FR813";3045483.65515;4843149.31825
754;162;"LOZERE";"FR814";3062524.61249;4945838.12517
755;162;"PYRENEES-ORIENTALES";"FR815";2968769.26194;4739660.512
756;163;"ALPES-DE-HAUTE-PROVENCE";"FR821";3279593.05441;4889048.61319
757;163;"HAUTES-ALPES";"FR822";3283235.01992;4950884.06189
758;163;"ALPES-MARITIMES";"FR823";3348847.50735;4867869.28815
759;163;"BOUCHES-DU-RHONE";"FR824";3184132.10966;4830814.58334
760;163;"VAR";"FR825";3276767.97782;4815234.19075
761;163;"VAUCLUSE";"FR826";3193287.38871;4882128.33903
762;164;"CORSE DU SUD";"FR831";3499791.87144;4641804.13227
763;164;"HAUTE-CORSE";"FR832";3516733.09841;4699314.87127
764;165;"EVROS";"GR111";4942087.81822;4708594.91314
765;165;"XANTHI";"GR112";4836577.79251;4683938.70667
766;165;"RODOPI";"GR113";4890863.217;4686862.84229
767;165;"DRAMA";"GR114";4774643.8481;4686608.23887
768;165;"KAVALA";"GR115";4805212.15405;4647059.3674
769;166;"IMATHIA";"GR121";4623201.83081;4573507.47867
770;166;"THESSALONIKI";"GR122";4696921.521;4600896.37582
771;166;"KILKIS";"GR123";4658385.61076;4633085.57508
772;166;"PELLA";"GR124";4607585.30688;4609893.44652
773;166;"PIERIA";"GR125";4646040.47151;4542055.87147
774;166;"SERRES";"GR126";4722270.89566;4653161.71125
775;166;"CHALKIDIKI";"GR127";4746919.3686;4567539.26355
776;167;"GREVENA";"GR131";4562596.336;4503083.29469
777;167;"KASTORIA";"GR132";4531212.0826;4548534.8732
778;167;"KOZANI";"GR133";4581955.17632;4539124.954
779;167;"FLORINA";"GR134";4551168.87916;4586211.03916
780;168;"KARDITSA";"GR141";4613449.9809;4430752.52047
781;168;"LARISA";"GR142";4652288.82021;4479915.74145
782;168;"MAGNISIA";"GR143";4709289.74501;4439258.29148
783;168;"TRIKALA";"GR144";4583635.11363;4462353.51256
784;169;"ARTA";"GR211";4547512.32152;4413492.04703
785;169;"THESPROTIA";"GR212";4480938.28283;4437645.57981
786;169;"IOANNINA";"GR213";4512129.44126;4472084.74903
787;169;"PREVEZA";"GR214";4512937.76028;4406959.81761
788;170;"ZAKYNTHOS";"GR221";4539301.04529;4249528.31176
789;170;"KERKYRA";"GR222";4430840.33127;4444776.64788
790;170;"KEFALLINIA";"GR223";4516018.66283;4298319.81325
791;170;"LEFKADA";"GR224";4516955.06065;4349842.27597
792;171;"AITOLOAKARNANIA";"GR231";4579741.94133;4355004.86996
793;171;"ACHAIA";"GR232";4633977.94459;4291647.86022
794;171;"ILEIA";"GR233";4610684.38838;4249533.6785
795;172;"VOIOTIA";"GR241";4736717.08384;4341789.85585
796;172;"EVVOIA";"GR242";4793840.91828;4375061.48245
797;172;"EVRYTANIA";"GR243";4601099.54089;4390066.69409
798;172;"FTHIOTIDA";"GR244";4675505.84028;4386578.6
799;172;"FOKIDA";"GR245";4658581.77274;4350176.4739
800;173;"ARGOLIDA";"GR251";4725709.35357;4253109.09084
801;173;"ARKADIA";"GR252";4683261.85746;4228830.17017
802;173;"KORINTHIA";"GR253";4708862.72355;4286060.95511
803;173;"LAKONIA";"GR254";4720674.73886;4170580.54454
804;173;"MESSINIA";"GR255";4652215.54449;4183135.54986
805;174;"ATTIKI";"GR3";4788870.18136;4288835.64171
806;175;"LESVOS";"GR411";4968255.24701;4497319.08943
807;175;"SAMOS";"GR412";5056259.2795;4320524.23287
808;175;"CHIOS";"GR413";4989552.75385;4392599.15295
809;176;"DODEKANISOS";"GR421";5173788.28492;4181312.30865
810;176;"KYKLADES";"GR422";4930078.68139;4241001.88612
811;177;"IRAKLEIO";"GR431";4974835.65004;4011459.44978
812;177;"LASITHI";"GR432";5040590.7772;4022704.54726
813;177;"RETHYMNI";"GR433";4926915.47209;4017851.74321
814;177;"CHANIA";"GR434";4860975.35384;4019987.0447
815;178;"BACS-KISKUN";"H010";4295313.95122;5212149.72107
816;179;"BARANYA";"H011";4214202.04721;5141930.8072
817;180;"BÉKÉS";"H012";4417069.83018;5247766.97244
818;181;"BIHAR";"H013";4438037.00925;5334149.15245
819;182;"BORSOD-ABAUJ-ZEMPLÉN";"H014";4389340.70443;5410084.1824
820;183;"BUDAPEST";"H015";4261294.98423;5312258.95738
821;184;"CSONGRAD";"H016";4362541.2274;5205030.35885
822;185;"FEJÉR";"H017";4223118.08345;5266715.41131
823;186;"GYÖR-SOPRON";"H018";4119823.53097;5312892.26217
824;187;"HEVES";"H020";4337486.77323;5355812.89954
825;188;"KOMAROM";"H021";4199181.56784;5316989.54805
826;189;"NOGRAD";"H022";4284641.31607;5370741.57554
827;190;"PEST";"H023";4280989.12429;5305539.44613
828;191;"SOMOGY";"H024";4161375.49396;5182090.13195
829;192;"SZABOLCS-SZATMAR";"H025";4475142.81181;5400289.63524
830;193;"SZOLNOK";"H026";4363014.38538;5299184.35167
831;194;"TOLNA";"H027";4231991.17686;5197639.88382
832;195;"VAS";"H028";4087453.01167;5252506.55755
833;196;"VESPRÉM";"H029";4155934.36609;5258857.23164
834;197;"ZALA";"H030";4103647.76463;5202224.63166
835;198;"HRAVATSKA";"HR";4084438.59537;5015393.0852
836;199;"BORDER";"IE001";2418568.17364;6161146.12841
837;199;"DUBLIN";"IE002";2486199.64847;6026966.30732
838;199;"MID-EAST";"IE003";2460853.58824;6021273.18163
839;199;"MIDLAND";"IE004";2404059.23388;6038014.95942
840;199;"MID-WEST";"IE005";2309627.96557;5992654.52686
841;199;"SOUTH-EAST";"IE006";2398467.31405;5939412.34769
842;199;"SOUTH-WEST";"IE007";2256958.97622;5920119.94119
843;199;"WEST";"IE008";2316853.96181;6097629.34351
844;200;"ISLAND";"IS";2229893.88434;7494250.47356
845;201;"TORINO";"IT111";3377142.15541;5001786.77709
846;201;"VERCELLI";"IT112";3437942.19372;5043690.5447
847;201;"BIELLA";"IT113";3429261.14602;5049377.45303
848;201;"VERBANO-CUSIO-OSSOLA";"IT114";3449293.25;5105824.26772
849;201;"NOVARA";"IT115";3464949.04565;5047067.69713
850;201;"CUNEO";"IT116";3387812.80058;4927491.55259
851;201;"ASTI";"IT117";3435957.81117;4971307.41068
852;201;"ALESSANDRIA";"IT118";3473335.68383;4965558.85497
853;202;"VALLE D´AOSTA";"IT12";3374495.94262;5067178.1497
854;203;"IMPERIA";"IT131";3404114.90023;4868166.08831
855;203;"SAVONA";"IT132";3443497.14424;4904755.38526
856;203;"GENOVA";"IT133";3509796.45543;4925106.13105
857;203;"LA SPEZIA";"IT134";3558564.20761;4898625.90745
858;204;"VARESE";"IT201";3482506.49247;5073961.30128
859;204;"COMO";"IT202";3511573.93093;5087532.72001
860;204;"LECCO";"IT203";3529657.36275;5085028.18573
861;204;"SONDRIO";"IT204";3569976.74096;5128986.51529
862;204;"MILANO";"IT205";3511859.55623;5039793.98531
863;204;"BERGAMO";"IT206";3561344.97385;5073419.20682
864;204;"BRESCIA";"IT207";3602266.5835;5063400.55887
865;204;"PAVIA";"IT208";3503253.92862;4996336.98617
866;204;"LODI";"IT209";3545034.55421;5010353.96727
867;204;"CREMONA";"IT20A";3577802.53042;5009333.47731
868;204;"MANTOVA";"IT20B";3638699.33897;5000055.09059
869;205;"BOLZANO-BOZEN";"IT311";3684733.16868;5175757.33378
870;205;"TRENTO";"IT312";3663545.42514;5112963.14826
871;206;"VERONA";"IT321";3659099.26689;5033214.2521
872;206;"VICENZA";"IT322";3693801.2652;5062574.34395
873;206;"BELLUNO";"IT323";3743421.37604;5135248.90064
874;206;"TREVISO";"IT324";3749962.9588;5077811.06743
875;206;"VENEZIA";"IT325";3771563.49504;5048668.83539
876;206;"PADOVA";"IT326";3719782.43868;5027210.38883
877;206;"ROVIGO";"IT327";3731042.41395;4989772.14385
878;207;"PORDENONE";"IT331";3784372.23586;5114714.49689
879;207;"UDINE";"IT332";3820470.16945;5128745.30413
880;207;"GORIZIA";"IT333";3847807.60287;5087481.54998
881;207;"TRIESTE";"IT334";3870705.0228;5072004.1091
882;208;"PIACENZA";"IT401";3549026.61372;4969784.76504
883;208;"PARMA";"IT402";3582911.08309;4948310.29232
884;208;"REGGIO NELL´EMILIA";"IT403";3623081.6212;4942050.63119
885;208;"MODENA";"IT404";3650341.98282;4934749.61757
886;208;"BOLOGNA";"IT405";3686853.77159;4923642.4321
887;208;"FERRARA";"IT406";3725119.6772;4964938.49696
888;208;"RAVENNA";"IT407";3738802.15688;4918986.3075
889;208;"FORLI-CESENA";"IT408";3743284.26452;4882104.90677
890;208;"RIMINI";"IT409";3784584.29896;4877240.79983
891;209;"MASSA-CARRARA";"IT511";3580578.63654;4902570.39186
892;209;"LUCCA";"IT512";3615483.95657;4875122.97979
893;209;"PISTOIA";"IT513";3648469.34182;4871357.29222
894;209;"FIRENZE";"IT514";3684297.41254;4855806.43493
895;209;"PRATO";"IT515";3668328.41736;4870465.49771
896;209;"LIVORNO";"IT516";3620748.6316;4778667.21231
897;209;"PISA";"IT517";3634918.51162;4819561.85392
898;209;"AREZZO";"IT518";3730766.82431;4825657.37243
899;209;"SIENA";"IT519";3699467.96327;4786515.32036
900;209;"GROSSETO";"IT51A";3683816.5835;4740816.23799
901;210;"PERUGIA";"IT521";3787654.20992;4775836.18532
902;210;"TERNI";"IT522";3775674.26;4731427.6759
903;211;"PESARO E URBINO";"IT531";3792247.35023;4848301.89933
904;211;"ANCONA";"IT532";3836362.46027;4826765.79673
905;211;"MACERATA";"IT533";3844857.04024;4792227.4928
906;211;"ASCOLI PICENO";"IT534";3871999.54196;4769345.53322
907;212;"VITERBO";"IT601";3746589.31235;4702991.95263
908;212;"RIETI";"IT602";3825846.87307;4700716.00237
909;212;"ROMA";"IT603";3796041.12669;4649027.24152
910;212;"LATINA";"IT604";3846730.70448;4595935.80616
911;212;"FROSINONE";"IT605";3877952.30078;4618875.51843
912;213;"L´AQUILA";"IT711";3880775.70691;4673469.7368
913;213;"TERAMO";"IT712";3888000.97444;4733901.09459
914;213;"PESCARA";"IT713";3911157.67871;4700437.80256
915;213;"CHIETI";"IT714";3945484.77959;4676861.2863
916;214;"ISERNIA";"IT721";3937496.7723;4625827.04561
917;214;"CAMPOBASSO";"IT722";3981248.90744;4634885.54282
918;215;"CASERTA";"IT801";3933029.44758;4577402.95974
919;215;"BENEVENTO";"IT802";3982655.83888;4583207.84138
920;215;"NAPOLI";"IT803";3950468.77607;4536415.7169
921;215;"AVELLINO";"IT804";4011573.95729;4555317.58694
922;215;"SALERNO";"IT805";4028349.66565;4496735.62514
923;216;"FOGGIA";"IT911";4049150.21359;4620244.03005
924;216;"BARI";"IT912";4140591.89993;4566630.93542
925;216;"TARANTO";"IT913";4195430.76827;4522080.64878
926;216;"BRINDISI";"IT914";4235810.20037;4533559.1683
927;216;"LECCE";"IT915";4281921.26261;4488690.25814
928;217;"POTENZA";"IT921";4083840.46126;4509319.24122
929;217;"MATERA";"IT922";4131737.23603;4508105.20424
930;218;"COSENZA";"IT931";4129425.28663;4406534.9571
931;218;"CROTONE";"IT932";4187023.38678;4367737.69408
932;218;"CATANZARO";"IT933";4149847.63604;4333012.37431
933;218;"VIBO VALENTIA";"IT934";4123655.99677;4301111.22238
934;218;"REGGIO DI CALABRIA";"IT935";4116073.95441;4257120.93538
935;219;"TRAPANI";"ITA01";3826498.59516;4192919.19361
936;219;"PALERMO";"ITA02";3903546.12121;4202659.64896
937;219;"MESSINA";"ITA03";4022072.46655;4228055.81851
938;219;"AGRIGENTO";"ITA04";3899184.9377;4154507.54568
939;219;"CALTANISSETTA";"ITA05";3949574.83463;4147773.98332
940;219;"ENNA";"ITA06";3979667.01963;4174427.00098
941;219;"CATANIA";"ITA07";4015701.0412;4169132.67202
942;219;"RAGUSA";"ITA08";4005838.0553;4100949.77679
943;219;"SIRACUSA";"ITA09";4035932.79993;4120932.79643
944;220;"SASSARI";"ITB01";3495809.4734;4512073.28346
945;220;"NUORO";"ITB02";3527641.19631;4444847.46818
946;220;"ORISTANO";"ITB03";3475942.69223;4424983.54471
947;220;"CAGLIARI";"ITB04";3494410.55909;4356516.41565
948;221;"LIETUVA";"LT";4441490.88556;6235557.30902
949;222;"LUXEMBOURG (GRAND-DUCHE)";"LU";3291051.77826;5519535.22485
950;223;"LATVIA";"LV";4466535.0224;6416478.50427
951;224;"MALTA";"M";3987898.08253;3986823.5129
952;224;"MONACO";"MC";3373092.01515;4846329.99111
953;224;"MAKEDONIJA";"MK";4560182.51486;4685971.12335
954;224;"MOLDAVIA";"MO";4972119.81789;5416190.71561
955;224;"CRNA GORA";"MT";4337138.96954;4789288.88479
956;229;"AKERSHUS";"N010";3622087.35869;6658149.42434
957;230;"AUST-AGDER";"N011";3443491.07473;6532135.06266
958;231;"BUSKERUD";"N012";3507773.7381;6688489.53229
959;232;"FINNMARK";"N013";4139804.25658;7851970.44521
960;233;"HEDMARK";"N014";3629979.11675;6817969.13056
961;234;"HORDALAND";"N015";3354754.59349;6696926.34248
962;235;"MORE OG ROMSDAL";"N016";3435262.38357;6945768.32011
963;236;"NORDLAND";"N017";3754295.16491;7434204.98217
964;237;"NORD-TRONDELAG";"N018";3659474.25429;7134470.34881
965;238;"OPPLAND";"N019";3520916.41581;6812948.89896
966;239;"OSLO";"N020";3598908.94092;6653367.93705
967;240;"OSTFOLD";"N021";3632848.03142;6586380.74903
968;241;"ROGALAND";"N022";3346417.84099;6561449.4635
969;242;"SOGN OG FJORDANE";"N023";3374028.20898;6816313.01919
970;243;"SOR-TRONDELAG";"N024";3572861.47701;7001850.84702
971;244;"TELEMARK";"N025";3476007.93604;6603097.63777
972;245;"TROMS";"N026";3917330.09602;7723156.79155
973;246;"VEST-AGDER";"N027";3398685.73992;6490842.58598
974;247;"VESTFOLD";"N028";3566480.75603;6581029.68129
975;248;"OOST-GRONINGEN";"NL111";3368452.15018;5885736.95141
976;248;"DELFZIJL E.O.";"NL112";3355864.07621;5912940.2064
977;248;"OVERIG GRONINGEN";"NL113";3335036.17544;5907872.953
978;249;"NOORD-FRIESLAND";"NL121";3287573.73158;5906491.55672
979;249;"ZUIDWEST-FRIESLAND";"NL122";3269108.21812;5876298.43296
980;249;"ZUIDOOST-FRIESLAND";"NL123";3301615.47165;5876213.76065
981;250;"NOORD-DRENTHE";"NL131";3340190.19106;5879311.89961
982;250;"ZUIDOOST-DRENTHE";"NL132";3355947.72969;5850522.43532
983;250;"ZUIDWEST-DRENTHE";"NL133";3325385.60206;5853818.89516
984;251;"NOORD-OVERIJSSEL";"NL211";3312810.65141;5832416.21886
985;251;"ZUIDWEST-OVERIJSSEL";"NL212";3313720.66566;5801715.69651
986;251;"TWENTE";"NL213";3344813.9033;5800268.75801
987;252;"VELUWE";"NL221";3282526.34915;5793540.97416
988;252;"ACHTERHOEK";"NL222";3323258.12222;5770203.41943
989;252;"ARNHEM-NIJMEGEN";"NL223";3286678.22003;5757918.87679
990;252;"ZUIDWEST-GELDERLAND";"NL224";3247106.17946;5754534.80053
991;253;"FLEVOLAND";"NL23";3268811.76309;5826813.3784
992;254;"UTRECHT";"NL31";3237754.63006;5780878.13745
993;255;"KOP VAN NOORD-HOLLAND";"NL321";3225485.85387;5861295.5365
994;255;"ALKMAAR E.O.";"NL322";3212380.2785;5842245.24176
995;255;"IJMOND";"NL323";3205070.87078;5827179.3298
996;255;"AGGLOM. HAARLEM";"NL324";3201627.24438;5813727.62715
997;255;"ZAANSTREEK";"NL325";3214952.77765;5824376.01038
998;255;"GROOT-AMSTERDAM";"NL326";3218225.72588;5813717.5647
999;255;"GOOI EN VECHTSTREEK";"NL327";3236767.72611;5799156.60368
1000;256;"AGGLOM. LEIDEN";"NL331";3192968.83638;5795535.08887
1001;256;"AGGLOM.´S-GRAVENHAGE";"NL332";3183207.45195;5782304.77749
1002;256;"DELFT EN WESTLAND";"NL333";3177152.8791;5772365.07854
1003;256;"OOSTELIJK-ZUID-HOLLAND";"NL334";3205895.16189;5780208.76937
1004;256;"GROOT-RIJNMOND";"NL335";3178900.88294;5755694.231
1005;256;"ZUIDOOST-ZUID-HOLLAND";"NL336";3215063.84331;5756337.22364
1006;257;"ZEEUWSCH-VLAANDEREN";"NL341";3136776.39034;5699318.7761
1007;257;"OVERIG ZEELAND";"NL342";3144316.71836;5724899.54178
1008;258;"WEST-NOORD-BRABANT";"NL411";3193208.64655;5724271.58488
1009;258;"MIDDEN-NOORD-BRABANT";"NL412";3226144.11124;5725230.94478
1010;258;"NOORDOOST-NOORD-BRABANT";"NL413";3263511.08441;5731570.4643
1011;258;"ZUIDOOST-NOORD-BRABANT";"NL414";3259389.51044;5703482.84968
1012;259;"NOORD-LIMBURG";"NL421";3294216.97325;5707326.28807
1013;259;"MIDDEN-LIMBURG";"NL422";3282212.27317;5679071.99225
1014;259;"ZUID-LIMBURG";"NL423";3279140.58569;5644316.16134
1015;260;"WARSZAWA";"PL001";4312293.12126;5857232.74107
1016;261;"BIALA";"PL002";4463658.01091;5850208.98871
1017;262;"BIALYSTOK";"PL003";4453058.06202;5971904.59565
1018;263;"BIELSKO-BIALA";"PL004";4236772.91045;5564189.88937
1019;264;"BYDGOSZCZ";"PL005";4095920.63952;5937922.77154
1020;265;"CHELM";"PL006";4502777.65476;5778046.30011
1021;266;"CIECHANOW";"PL007";4263976.57777;5926161.53913
1022;267;"CZESTOCHOWA";"PL008";4212512.51973;5680613.12457
1023;268;"ELBLAG";"PL009";4182599.31532;6041502.7179
1024;269;"GDANSK";"PL010";4103823.35168;6051383.52799
1025;270;"GORZOW WIELKOPOLSKI";"PL011";3927873.13105;5864658.86693
1026;271;"JELENIA GORA";"PL012";3955560.73405;5679661.66733
1027;272;"KALISZ";"PL013";4114323.12836;5760002.42728
1028;273;"KATOWICE";"PL014";4208683.74604;5615475.1068
1029;274;"KIELCE";"PL015";4317505.21668;5687590.42114
1030;275;"KONIN";"PL016";4138975.18687;5828483.67124
1031;276;"KOSZALIN";"PL017";3971084.48853;5993497.36133
1032;277;"KRAKOW";"PL018";4286789.42504;5605989.90657
1033;278;"KROSNO";"PL019";4446841.70551;5567068.09174
1034;279;"LEGNICA";"PL020";3991812.58483;5714272.95326
1035;280;"LESZNO";"PL021";4030777.56097;5770127.2043
1036;281;"LUBLIN";"PL022";4431307.45508;5771513.32808
1037;282;"LOMZA";"PL023";4387487.0489;5978283.18424
1038;283;"LODZ";"PL024";4219379.44775;5797231.23917
1039;284;"NOWY SACZ";"PL025";4327547.5173;5553023.86621
1040;285;"OLSZTYN";"PL026";4261243.58561;6027784.46716
1041;286;"OPOLE";"PL027";4124570.93307;5646794.73794
1042;287;"OSTROLEKA";"PL028";4329895.58886;5944448.954
1043;288;"PILA";"PL029";4015056.5812;5913015.15668
1044;289;"PIOTRKOW";"PL030";4248481.59244;5747177.35823
1045;290;"PLOCK";"PL031";4223736.36072;5868158.89297
1046;291;"POZNAN";"PL032";4036546.87656;5836144.29817
1047;292;"PRZEMYSL";"PL033";4488315.2149;5634106.89801
1048;293;"RADOM";"PL034";4339941.96993;5775097.38518
1049;294;"RZESZOW";"PL035";4423256.20433;5636436.40114
1050;295;"SIEDLCE";"PL036";4386887.15392;5860979.10904
1051;296;"SIERADZ";"PL037";4178191.64491;5757037.88571
1052;297;"SKIERNIEWICE";"PL038";4265989.50303;5821311.47986
1053;298;"SLUPSK";"PL039";4035535.20856;6040862.71113
1054;299;"SUWALKI";"PL040";4377496.77034;6065124.44463
1055;300;"SZCZECIN";"PL041";3892788.7164;5943956.44198
1056;301;"TARNOBRZEG";"PL042";4408382.41794;5693375.59877
1057;302;"TARNOW";"PL043";4356159.40337;5611764.6817
1058;303;"TORUN";"PL044";4166030.8733;5950597.15328
1059;304;"WALBRZYCH";"PL045";4037918.32757;5633826.14873
1060;305;"WLOCLAWEK";"PL046";4176451.1924;5890079.0478
1061;306;"WROCLAW";"PL047";4060415.39072;5703454.85075
1062;307;"ZAMOSC";"PL048";4508910.83921;5710235.53627
1063;308;"ZIELONA GORA";"PL049";3937479.71155;5774905.03467
1064;309;"MINHO-LIMA";"PT111";2046840.29701;4788721.56738
1065;309;"CAVADO";"PT112";2045212.15859;4758888.60116
1066;309;"AVE";"PT113";2054881.1534;4740426.14338
1067;309;"GRANDE PORTO";"PT114";2023890.86527;4715873.00464
1068;309;"TAMEGA";"PT115";2068069.90969;4713664.09411
1069;309;"ENTRE DOURO E VOUGA";"PT116";2036045.532;4678821.00031
1070;309;"DOURO";"PT117";2123870.68593;4690009.80544
1071;309;"ALTO TRAS-OS-MONTES";"PT118";2159254.50207;4736244.79751
1072;310;"BAIXO VOUGA";"PT121";2017105.24939;4648714.36548
1073;310;"BAIXO MONDEGO";"PT122";2001922.43055;4607097.90949
1074;310;"PINHAL LITORAL";"PT123";1976940.40442;4562041.43377
1075;310;"PINHAL INTERIOR NORTE";"PT124";2039659.53562;4585886.80652
1076;310;"DAO-LAFOES";"PT125";2067268.01286;4646676.94839
1077;310;"PINHAL INTERIOR SUL";"PT126";2045765.65731;4546648.50166
1078;310;"SERRA DA ESTRELA";"PT127";2089055.76286;4617455.74226
1079;310;"BEIRA INTERIOR NORTE";"PT128";2135334.92824;4628436.80706
1080;310;"BEIRA INTERIOR SUL";"PT129";2104852.55875;4550364.44561
1081;310;"COVA DA BEIRA";"PT12A";2095093.87288;4585531.46114
1082;311;"OESTE";"PT131";1932218.57488;4507997.17115
1083;311;"GRANDE LISBOA";"PT132";1917347.30782;4462971.63019
1084;311;"PENINSULA DE SETUBAL";"PT133";1940203.20849;4433400.29128
1085;311;"MEDIO TEJO";"PT134";2010746.03461;4525169.43601
1086;311;"LEZIRIA DO TEJO";"PT135";1975740.42695;4484250.83707
1087;312;"ALENTEJO LITORAL";"PT141";1953963.61708;4357356.9834
1088;312;"ALTO ALENTEJO";"PT142";2060988.68391;4473423.74873
1089;312;"ALENTEJO CENTRAL";"PT143";2032684.88498;4412980.15504
1090;312;"BAIXO ALENTEJO";"PT144";2016838.63139;4332319.23705
1091;313;"ALGARVE";"PT15";1974323.49365;4267003.01755
1092;314;"ACORES";"PT2";288329.882634;4928091.28749
1093;315;"MADEIRA";"PT3";1034367.23764;3940548.97297
1094;316;"ALBA";"RO010";4617639.86013;5218166.50795
1095;317;"ARAD";"RO011";4482790.06161;5205473.59046
1096;318;"ARGES";"RO012";4751894.02304;5112996.15538
1097;319;"BACAU";"RO013";4864183.78406;5298238.74533
1098;320;"BIHOR";"RO014";4504877.63442;5285740.6493
1099;321;"BISTRITA-NASAUD";"RO015";4673950.12082;5351650.32041
1100;322;"BOTOSANI";"RO016";4826724.57112;5457095.83493
1101;323;"BRAILA";"RO017";4969472.08002;5166711.96255
1102;324;"BRASOV";"RO018";4767939.63277;5199892.32254
1103;325;"BUCURESTI";"RO019";4863427.88751;5075761.49137
1104;326;"BUZAU";"RO020";4892438.47486;5167818.85976
1105;327;"CALARASI";"RO021";4937774.48619;5068920.54242
1106;328;"CARAS-SEVERIN";"RO022";4525332.27138;5084716.46405
1107;329;"CLUJ";"RO023";4608437.20728;5289734.30483
1108;330;"CONSTANTA";"RO024";5036921.23921;5083542.14972
1109;331;"COVASNA";"RO025";4816028.1879;5230620.60286
1110;332;"DIMBOVITA";"RO026";4804291.15101;5103533.83354
1111;333;"DOLJ";"RO027";4669060.01386;4993602.18726
1112;334;"GIURGIU";"RO028";4851184.85698;5030285.93473
1113;335;"GORJ";"RO029";4627814.6717;5085440.14296
1114;336;"HARGHITA";"RO030";4769285.30664;5291402.1608
1115;337;"HUNEDOARA";"RO031";4583922.30651;5163594.86782
1116;338;"IALOMITA";"RO032";4949016.94931;5108043.96987
1117;339;"IASI";"RO033";4883166.19549;5393236.73822
1118;340;"MARAMURES";"RO034";4624363.11526;5391750.28199
1119;341;"MEHEDINTI";"RO035";4594895.01448;5030765.50466
1120;342;"MURES";"RO036";4701760.46356;5284275.44305
1121;343;"NEAMT";"RO037";4820474.41629;5351815.97036
1122;344;"OLT";"RO038";4731465.91527;5020820.47516
1123;345;"PRAHOVA";"RO039";4839193.21441;5139557.19506
1124;346;"SALAJ";"RO040";4568243.01438;5325139.9866
1125;347;"SATU MARE";"RO041";4542266.41069;5379821.63041
1126;348;"SIBIU";"RO042";4683124.4001;5194081.21188
1127;349;"SUCEAVA";"RO043";4758999.79537;5405321.20765
1128;350;"TECUCI/GALATI";"RO044";4957362.98526;5246872.01912
1129;351;"TELEORMAN";"RO045";4798266.34057;5005767.86802
1130;352;"TIMIS";"RO046";4462131.88876;5141917.86506
1131;353;"TULCEA/TUGEA";"RO047";5063081.81966;5187465.32635
1132;354;"VASLUI";"RO048";4937893.60577;5327934.78843
1133;355;"VILCEA";"RO049";4688585.8774;5107428.10311
1134;356;"VRANCEA";"RO050";4896857.74834;5231932.94064
1135;357;"KALININGRADSKAJA OBLAST";"RU001";4300154.15209;6135591.68756
1136;358;"LENINGRADSKAJA OBLAST";"RU002";4740046.34017;6876865.71325
1137;359;"KOSOVO/KOSOVE";"SB010";4475462.6333;4784619.67904
1138;360;"SERBIJA";"SB011";4472470.18085;4918743.99024
1139;361;"VOJVODINA";"SB012";4368163.29736;5089037.71169
1140;362;"STOCKHOLMS LAEN";"SE011";4023344.35916;6629669.5105
1141;363;"UPPSALA LAEN";"SE021";3987269.26434;6689490.05623
1142;363;"SOEDERMANLANDS LAEN";"SE022";3942635.33689;6572475.14123
1143;363;"OESTERGOETLANDS LAEN";"SE023";3891865.93577;6488928.42639
1144;363;"OEREBRO LAEN";"SE024";3841763.06129;6595386.42551
1145;363;"VAESTMANLANDS LAEN";"SE025";3912699.71122;6654428.94294
1146;364;"JOENKOEPING LAEN";"SE031";3827208.60392;6387549.79821
1147;364;"KRONOBERG LAEN";"SE032";3842179.54987;6309918.31971
1148;364;"KALMAR LAEN";"SE033";3932800.57247;6362404.33453
1149;364;"GOTLANDS LAEN";"SE034";4074128.82234;6414194.35974
1150;365;"BLEKINGE LAEN";"SE041";3885002.85922;6256650.65247
1151;365;"KRISTIANSTAD LAEN";"SE042";3799200.57428;6231640.11689
1152;365;"MALMOEHUS LAEN";"SE043";3772565.65791;6187554.32836
1153;366;"HALLANDS LAEN";"SE051";3733504.12879;6321130.38616
1154;366;"GOETEBORGS OCH BOHUS LAEN";"SE052";3659505.43262;6467272.8098
1155;366;"AELVSBORGS LAEN";"SE053";3715213.40813;6455480.44778
1156;366;"SKARABORGS LAEN";"SE054";3774798.30679;6490318.58656
1157;367;"VAERMLANDS LAEN";"SE061";3734632.01178;6634916.23628
1158;367;"KOPPARBERGS LAEN";"SE062";3791573.66741;6771280.10372
1159;367;"GAEVLEBORGS LAEN";"SE063";3892178.12275;6835145.29512
1160;368;"VAESTERNORRLANDS LAEN";"SE071";3920434.05653;7024987.04234
1161;368;"JAEMTLANDS LAEN";"SE072";3769459.34901;7027491.85109
1162;369;"VAESTERBOTTENS LAEN";"SE081";3921140.82448;7224723.53696
1163;369;"NORRBOTTENS LAEN";"SE082";3984508.33281;7471647.93623
1164;370;"BRATISLAVA";"SK010";4104760.51684;5366275.58958
1165;371;"STREDOSLOVENSKY KRAJ";"SK011";4252686.45413;5460247.72659
1166;372;"VYCHODOSLOVENSKY KRAJ";"SK012";4395238.25904;5494753.38869
1167;373;"ZAPADOSLOVENSKY KRAJ";"SK013";4161734.13854;5393317.83724
1168;374;"SLOVENIJA";"SL";3949774.04218;5125141.48879
1169;375;"SAN MARINO";"SM";3777737.64829;4873218.41035
1170;376;"ADANA";"TR010";5882778.67113;4489537.05509
1171;377;"ADIYAMAN";"TR020";6102493.01691;4615847.29331
1172;378;"AFYON";"TR030";5397321.68639;4505458.89581
1173;379;"AGRI";"TR040";6469038.39105;4984939.60936
1174;380;"AMASYA";"TR050";5769727.09424;4866441.99685
1175;381;"ANKARA";"TR060";5529122.31845;4681090.68224
1176;382;"ANTALYA";"TR070";5468629.67326;4306430.77351
1177;383;"ARTVIN";"TR080";6270420.4621;5108692.53446
1178;384;"AYDIN";"TR090";5184523.32667;4353461.89378
1179;385;"BALIKESIR";"TR100";5126901.01454;4568894.79919
1180;386;"BILECIK";"TR110";5307640.90781;4661108.98645
1181;387;"BINGÖL";"TR120";6260693.07456;4834094.81798
1182;388;"BITLIS";"TR130";6438426.44072;4835576.32754
1183;389;"BOLU";"TR140";5411343.76463;4755285.59964
1184;390;"BURDUR";"TR150";5375758.64192;4355455.46941
1185;391;"BURSA";"TR160";5216317.47339;4640345.8178
1186;392;"CANAKKALE";"TR170";5020823.55846;4587369.13164
1187;393;"CANKIRI";"TR180";5564223.01623;4805965.80431
1188;394;"CORUM";"TR190";5685167.4038;4820493.50641
1189;395;"DENIZLI";"TR200";5297279.14773;4376711.64115
1190;396;"DIYARBAKIR";"TR210";6275706.52076;4716143.20767
1191;397;"EDIRNE";"TR220";4977966.75165;4720221.26403
1192;398;"ELAZIG";"TR230";6166164.48781;4748253.7152
1193;399;"ERZINCAN";"TR240";6116210.69753;4859976.27859
1194;400;"ERZURUM";"TR250";6295188.79386;4979074.75491
1195;401;"ESKISEHIR";"TR260";5403170.52429;4624201.18864
1196;402;"GAZIANTEP";"TR270";6041235.69231;4497571.79716
1197;403;"GIRESUN";"TR280";6014077.95981;4937705.66132
1198;404;"GÜMÜSHANE";"TR290";6097225.69776;4938828.18009
1199;405;"HAKKARI";"TR300";6642357.9442;4778513.28689
1200;406;"HATAY";"TR310";5968957.74829;4396601.76371
1201;407;"ISPARTA";"TR320";5441851.09576;4431946.7879
1202;408;"ICEI";"TR330";5737749.90625;4361750.95051
1203;409;"ISTANBUL";"TR340";5168265.01548;4752300.11716
1204;410;"IZMIR";"TR350";5102324.48193;4422252.14045
1205;411;"KARS";"TR360";6408866.24778;5073861.03112
1206;412;"KASTAMONU";"TR370";5570740.27303;4899785.61892
1207;413;"KAYSERI";"TR380";5855240.51272;4631738.53146
1208;414;"KIRKLARELI";"TR390";5037832.32747;4783964.33469
1209;415;"KIRSEHIR";"TR400";5677446.32862;4667491.87323
1210;416;"KOCAELI";"TR410";5260675.19987;4733074.1464
1211;417;"KONYA";"TR420";5592642.2353;4481467.38838
1212;418;"KÜTAHYA";"TR430";5284530.32515;4558606.79415
1213;419;"MALATYA";"TR440";6057128.18642;4692159.41105
1214;420;"MANISA";"TR450";5169422.24369;4469882.44019
1215;421;"K.MARAS";"TR460";5978660.49155;4583274.93054
1216;422;"MARDIN";"TR470";6351575.20252;4642613.32427
1217;423;"MUGLA";"TR480";5243918.07944;4279073.96198
1218;424;"MUS";"TR490";6369435.10238;4870788.10831
1219;425;"NEVSEHIR";"TR500";5747584.60311;4623091.47444
1220;426;"NIGDE";"TR510";5773048.84236;4523099.63263
1221;427;"ORDU";"TR520";5915434.03689;4926932.68689
1222;428;"RIZE";"TR530";6197363.61552;5054946.6091
1223;429;"SAKARYA";"TR540";5321106.04985;4740441.39402
1224;430;"SAMSUN";"TR550";5775051.20286;4930947.04327
1225;431;"SIIRT";"TR560";6440062.34505;4753343.90001
1226;432;"SINOP";"TR570";5663216.0688;4945495.18729
1227;433;"SIVAS";"TR580";5945032.22179;4783595.90901
1228;434;"TEKIRDAG";"TR590";5048065.81057;4716508.87935
1229;435;"TOKAT";"TR600";5852415.15008;4851757.44957
1230;436;"TRABZON";"TR610";6114254.6624;5003305.32103
1231;437;"TUNCELI";"TR620";6149521.16088;4812142.77387
1232;438;"S.URFA";"TR630";6196072.18486;4576567.00265
1233;439;"USAK";"TR640";5283345.68209;4473244.7454
1234;440;"VAN";"TR650";6550781.32845;4874824.97943
1235;441;"YOZGAT";"TR660";5766396.45931;4734449.06119
1236;442;"ZONGULDAK";"TR670";5450131.92284;4839328.13354
1237;443;"AKSARAY";"TR680";5681958.10832;4557764.28731
1238;444;"BAYBURT";"TR690";6171842.19904;4955864.22387
1239;445;"KARAMAN";"TR700";5657077.95546;4377191.25685
1240;446;"KIRIKKALE";"TR710";5622303.79333;4717403.44134
1241;447;"BATMAN";"TR720";6371467.95593;4735577.49809
1242;448;"SIRNAK";"TR730";6500559.04887;4718604.03613
1243;449;"BARTIN";"TR740";5467114.78517;4884296.17885
1244;450;"ARDAHAN";"TR750";6358299.78977;5140348.75043
1245;451;"IGDIR";"TR760";6516894.69903;5051948.21645
1246;452;"CHERKASSY";"UA001";5120234.00368;5704266.10427
1247;453;"CHERNIGOV";"UA002";5092680.95938;5947815.11307
1248;454;"CHERNOVTSY";"UA003";4759523.17744;5489750.61376
1249;455;"CRIMEA";"UA004";5484101.50698;5338421.08411
1250;456;"DNEPROPETROVSK";"UA005";5407325.53255;5682657.10642
1251;457;"DONETSK";"UA006";5624607.66593;5734021.01907
1252;458;"IVANO-FRANKOVSK";"UA007";4648750.6734;5515058.9203
1253;459;"KHAR´KOV";"UA008";5473353.36053;5870959.6713
1254;460;"KHERSON";"UA009";5374629.63059;5473948.98558
1255;461;"KHMEL´NITSKIY";"UA010";4795451.15558;5643259.37392
1256;462;"KIEV";"UA011";5021086.38262;5798656.71285
1257;463;"KIROVOGRAD";"UA012";5199568.56106;5633622.29443
1258;464;"LUHANS´K";"UA013";5679628.20119;5876669.41252
1259;465;"L´VOV";"UA014";4574570.88011;5617281.06107
1260;466;"NIKOLAYEV";"UA015";5212752.96072;5513845.67315
1261;467;"ODESSA";"UA016";5090957.79713;5394412.26269
1262;468;"POLTAVA";"UA017";5276144.77334;5812663.22067
1263;469;"ROVNO";"UA018";4716803.00626;5802395.60778
1264;470;"SUMY";"UA019";5246867.02516;5970409.87936
1265;471;"TERNOPOL´";"UA020";4706652.9569;5608795.50686
1266;472;"VINNITSA";"UA021";4938441.18143;5610362.32785
1267;473;"VOLYN";"UA022";4607097.79575;5794080.61617
1268;474;"ZAKARPAT´YE";"UA023";4556522.73483;5462484.05939
1269;475;"ZAPOROZH´YE";"UA024";5511936.40653;5594249.2892
1270;476;"ZHITOMIR";"UA025";4872272.86856;5795198.48033
1271;477;"CLEVELAND";"UK111";2843980.04183;6096890.34019
1272;477;"DURHAM";"UK112";2803399.21484;6115447.92448
1273;478;"CUMBRIA";"UK12";2723750.69532;6114262.71775
1274;479;"NORTHUMBERLAND";"UK131";2797015.62773;6179608.45244
1275;479;"TYNE AND WEAR";"UK132";2824146.77597;6142995.84833
1276;480;"HUMBERSIDE";"UK21";2875417.45157;6003449.87963
1277;481;"NORTH YORKSHIRE";"UK22";2821536.05212;6055545.22227
1278;482;"SOUTH YORKSHIRE";"UK23";2815445.55469;5978082.38031
1279;483;"WEST YORKSHIRE";"UK24";2795928.25141;6009951.29642
1280;484;"DERBYSHIRE";"UK311";2790800.12477;5941803.09831
1281;484;"NOTTINGHAMSHIRE";"UK312";2830309.99807;5935052.52346
1282;485;"LEICESTERSHIRE";"UK321";2821426.97849;5884044.43299
1283;485;"NORTHAMPTONSHIRE";"UK322";2827788.47703;5842632.28118
1284;486;"LINCOLNSHIRE";"UK33";2881058.52481;5926697.66287
1285;487;"CAMBRIDGESHIRE";"UK401";2887490.40547;5841434.46115
1286;487;"NORFOLK";"UK402";2956108.2891;5868335.87651
1287;487;"SUFFOLK";"UK403";2957405.27222;5817045.42181
1288;488;"BEDFORDSHIRE";"UK511";2852363.59783;5813108.63669
1289;488;"HERTFORDSHIRE";"UK512";2865360.96031;5784023.93747
1290;489;"BERKSHIRE";"UK521";2800720.55232;5749858.22868
1291;489;"BUCKINGHAMSHIRE";"UK522";2825060.22358;5789015.70705
1292;489;"OXFORDSHIRE";"UK523";2788036.89823;5787392.62989
1293;490;"EAST SUSSEX";"UK531";2885698.58875;5680881.11082
1294;490;"SURREY";"UK532";2842795.25336;5720626.7203
1295;490;"WEST SUSSEX";"UK533";2833660.51768;5689619.52348
1296;491;"ESSEX";"UK54";2917832.35003;5773310.21539
1297;492;"GREATER LONDON";"UK55";2867960.25569;5745984.63778
1298;493;"HAMPSHIRE";"UK561";2779482.32025;5709097.92612
1299;493;"ISLE OF WIGHT";"UK562";2772725.13931;5666248.64671
1300;494;"KENT";"UK57";2922447.729;5709590.35636
1301;495;"AVON";"UK611";2696476.4466;5764099.68282
1302;495;"GLOUCESTERSHIRE";"UK612";2734775.91158;5801933.17239
1303;495;"WILTSHIRE";"UK613";2738495.13026;5743264.30041
1304;496;"CORNWALL";"UK621";2519135.37343;5677523.04298
1305;496;"DEVON";"UK622";2597563.22988;5702841.63935
1306;497;"DORSET";"UK631";2703760.14081;5691376.14812
1307;497;"SOMERSET";"UK632";2664639.59219;5730604.14634
1308;498;"HEREFORD AND WORCESTER";"UK711";2714425.94368;5842604.64149
1309;498;"WARWICKSHIRE";"UK712";2780430.29656;5848733.53126
1310;499;"SHROPSHIRE";"UK721";2708266.56799;5898744.95531
1311;499;"STAFFORDSHIRE";"UK722";2757592.99698;5915618.60919
1312;500;"WEST MIDLANDS (COUNTY)";"UK73";2762397.77504;5872811.1205
1313;501;"CHESHIRE";"UK81";2731430.80084;5959483.82931
1314;502;"GREATER MANCHESTER";"UK82";2752632.30713;5991399.17065
1315;503;"LANCASHIRE";"UK83";2737101.83938;6030783.64777
1316;504;"MERSEYSIDE";"UK84";2709357.48531;5990264.56647
1317;505;"CLWYD";"UK911";2677757.15974;5955052.1429
1318;505;"DYFED";"UK912";2586271.05863;5846900.5715
1319;505;"GWYNEDD";"UK913";2625389.2514;5954273.00074
1320;505;"POWYS";"UK914";2655050.64261;5869614.84173
1321;506;"GWENT";"UK921";2676025.70852;5799880.24843
1322;506;"MID GLAMORGAN";"UK922";2641023.75523;5794684.44091
1323;506;"SOUTH GLAMORGAN";"UK923";2645304.36844;5775408.31035
1324;506;"WEST GLAMORGAN";"UK924";2610547.12556;5803700.55113
1325;507;"BORDERS";"UKA11";2758087.58105;6224516.14876
1326;507;"CENTRAL";"UKA12";2680959.16481;6311182.69439
1327;507;"FIFE";"UKA13";2749741.55076;6300300.45157
1328;507;"LOTHIAN";"UKA14";2745765.82977;6263919.1063
1329;507;"TAYSIDE";"UKA15";2731343.87444;6347580.65895
1330;508;"DUMFRIES AND GALLOWAY";"UKA21";2674453.10151;6182644.90179
1331;508;"STRATHCLYDE";"UKA22";2631460.1292;6280939.71404
1332;509;"HIGHLANDS";"UKA31";2698985.05015;6487245.11068
1333;509;"ISLANDS";"UKA32";2566612.89195;6534146.49975
1334;510;"GRAMPIAN";"UKA4";2791136.22788;6415384.64811
1335;511;"NORTHERN IRELAND";"UKB";2490353.84289;6166682.23854
